﻿
DisplayName "Magical Academy 1F"



EVENT   1
 PAGE   1
  250(bytes(0x04,0x08,0x6f,0x3a,0x0c,0x52,0x50,0x47,0x3a,0x3a,0x53,0x45,0x08,0x3a,0x0a,0x40,0x6e,0x61,0x6d,0x65,0x49,0x22,0x09,0x4d,0x6f,0x76,0x65,0x06,0x3a,0x06,0x45,0x54,0x3a,0x0b,0x40,0x70,0x69,0x74,0x63,0x68,0x69,0x69,0x3a,0x0c,0x40,0x76,0x6f,0x6c,0x75,0x6d,0x65,0x69,0x55))
  TeleportPlayer(0,282,4,15,0,0)
  0()



EVENT   2
 PAGE   1
  250(bytes(0x04,0x08,0x6f,0x3a,0x0c,0x52,0x50,0x47,0x3a,0x3a,0x53,0x45,0x08,0x3a,0x0a,0x40,0x6e,0x61,0x6d,0x65,0x49,0x22,0x09,0x4d,0x6f,0x76,0x65,0x06,0x3a,0x06,0x45,0x54,0x3a,0x0b,0x40,0x70,0x69,0x74,0x63,0x68,0x69,0x69,0x3a,0x0c,0x40,0x76,0x6f,0x6c,0x75,0x6d,0x65,0x69,0x55))
  TeleportPlayer(0,282,5,15,0,0)
  0()



EVENT   3
 PAGE   1
  ChangeSwitch(31,31,1)
  ChangeSwitch(32,32,1)
  250(bytes(0x04,0x08,0x6f,0x3a,0x0c,0x52,0x50,0x47,0x3a,0x3a,0x53,0x45,0x08,0x3a,0x0a,0x40,0x6e,0x61,0x6d,0x65,0x49,0x22,0x09,0x4d,0x6f,0x76,0x65,0x06,0x3a,0x06,0x45,0x54,0x3a,0x0b,0x40,0x70,0x69,0x74,0x63,0x68,0x69,0x69,0x3a,0x0c,0x40,0x76,0x6f,0x6c,0x75,0x6d,0x65,0x69,0x55))
  TeleportPlayer(0,282,45,15,0,0)
  0()



EVENT   4
 PAGE   1
  ChangeSwitch(31,31,1)
  ChangeSwitch(32,32,1)
  250(bytes(0x04,0x08,0x6f,0x3a,0x0c,0x52,0x50,0x47,0x3a,0x3a,0x53,0x45,0x08,0x3a,0x0a,0x40,0x6e,0x61,0x6d,0x65,0x49,0x22,0x09,0x4d,0x6f,0x76,0x65,0x06,0x3a,0x06,0x45,0x54,0x3a,0x0b,0x40,0x70,0x69,0x74,0x63,0x68,0x69,0x69,0x3a,0x0c,0x40,0x76,0x6f,0x6c,0x75,0x6d,0x65,0x69,0x55))
  TeleportPlayer(0,282,46,15,0,0)
  0()



EVENT   5
 PAGE   1
  ChangeSwitch(100,100,1)
  250(bytes(0x04,0x08,0x6f,0x3a,0x0c,0x52,0x50,0x47,0x3a,0x3a,0x53,0x45,0x08,0x3a,0x0a,0x40,0x6e,0x61,0x6d,0x65,0x49,0x22,0x09,0x4d,0x6f,0x76,0x65,0x06,0x3a,0x06,0x45,0x54,0x3a,0x0b,0x40,0x70,0x69,0x74,0x63,0x68,0x69,0x69,0x3a,0x0c,0x40,0x76,0x6f,0x6c,0x75,0x6d,0x65,0x69,0x55))
  TeleportPlayer(0,2,323,173,0,0)
  0()



EVENT   6
 PAGE   1
  ChangeSwitch(100,100,1)
  250(bytes(0x04,0x08,0x6f,0x3a,0x0c,0x52,0x50,0x47,0x3a,0x3a,0x53,0x45,0x08,0x3a,0x0a,0x40,0x6e,0x61,0x6d,0x65,0x49,0x22,0x09,0x4d,0x6f,0x76,0x65,0x06,0x3a,0x06,0x45,0x54,0x3a,0x0b,0x40,0x70,0x69,0x74,0x63,0x68,0x69,0x69,0x3a,0x0c,0x40,0x76,0x6f,0x6c,0x75,0x6d,0x65,0x69,0x55))
  TeleportPlayer(0,2,323,173,0,0)
  0()



EVENT   7
 PAGE   1
  ChangeSwitch(100,100,1)
  250(bytes(0x04,0x08,0x6f,0x3a,0x0c,0x52,0x50,0x47,0x3a,0x3a,0x53,0x45,0x08,0x3a,0x0a,0x40,0x6e,0x61,0x6d,0x65,0x49,0x22,0x09,0x4d,0x6f,0x76,0x65,0x06,0x3a,0x06,0x45,0x54,0x3a,0x0b,0x40,0x70,0x69,0x74,0x63,0x68,0x69,0x69,0x3a,0x0c,0x40,0x76,0x6f,0x6c,0x75,0x6d,0x65,0x69,0x55))
  TeleportPlayer(0,2,323,173,0,0)
  0()



EVENT   8
 PAGE   1
  250(bytes(0x04,0x08,0x6f,0x3a,0x0c,0x52,0x50,0x47,0x3a,0x3a,0x53,0x45,0x08,0x3a,0x0a,0x40,0x6e,0x61,0x6d,0x65,0x49,0x22,0x0a,0x43,0x68,0x65,0x73,0x74,0x06,0x3a,0x06,0x45,0x54,0x3a,0x0b,0x40,0x70,0x69,0x74,0x63,0x68,0x69,0x69,0x3a,0x0c,0x40,0x76,0x6f,0x6c,0x75,0x6d,0x65,0x69,0x55))
  205(0,bytes(0x04,0x08,0x6f,0x3a,0x13,0x52,0x50,0x47,0x3a,0x3a,0x4d,0x6f,0x76,0x65,0x52,0x6f,0x75,0x74,0x65,0x09,0x3a,0x0c,0x40,0x72,0x65,0x70,0x65,0x61,0x74,0x46,0x3a,0x0f,0x40,0x73,0x6b,0x69,0x70,0x70,0x61,0x62,0x6c,0x65,0x46,0x3a,0x0a,0x40,0x77,0x61,0x69,0x74,0x54,0x3a,0x0a,0x40,0x6c,0x69,0x73,0x74,0x5b,0x0b,0x6f,0x3a,0x15,0x52,0x50,0x47,0x3a,0x3a,0x4d,0x6f,0x76,0x65,0x43,0x6f,0x6d,0x6d,0x61,0x6e,0x64,0x07,0x3a,0x0a,0x40,0x63,0x6f,0x64,0x65,0x69,0x29,0x3a,0x10,0x40,0x70,0x61,0x72,0x61,0x6d,0x65,0x74,0x65,0x72,0x73,0x5b,0x00,0x6f,0x3b,0x0a,0x07,0x3b,0x0b,0x69,0x16,0x3b,0x0c,0x5b,0x00,0x6f,0x3b,0x0a,0x07,0x3b,0x0b,0x69,0x14,0x3b,0x0c,0x5b,0x06,0x69,0x08,0x6f,0x3b,0x0a,0x07,0x3b,0x0b,0x69,0x17,0x3b,0x0c,0x5b,0x00,0x6f,0x3b,0x0a,0x07,0x3b,0x0b,0x69,0x14,0x3b,0x0c,0x5b,0x06,0x69,0x08,0x6f,0x3b,0x0a,0x07,0x3b,0x0b,0x69,0x00,0x3b,0x0c,0x5b,0x00))
  ChangeSelfSwitch("A",0)
  ChangeInventory_Item(28,0,0,1)
  0()
 PAGE   2
  // condition: self-switch A is ON
  0()



EVENT   9
 PAGE   1
  250(bytes(0x04,0x08,0x6f,0x3a,0x0c,0x52,0x50,0x47,0x3a,0x3a,0x53,0x45,0x08,0x3a,0x0a,0x40,0x6e,0x61,0x6d,0x65,0x49,0x22,0x0a,0x43,0x68,0x65,0x73,0x74,0x06,0x3a,0x06,0x45,0x54,0x3a,0x0b,0x40,0x70,0x69,0x74,0x63,0x68,0x69,0x69,0x3a,0x0c,0x40,0x76,0x6f,0x6c,0x75,0x6d,0x65,0x69,0x55))
  205(0,bytes(0x04,0x08,0x6f,0x3a,0x13,0x52,0x50,0x47,0x3a,0x3a,0x4d,0x6f,0x76,0x65,0x52,0x6f,0x75,0x74,0x65,0x09,0x3a,0x0c,0x40,0x72,0x65,0x70,0x65,0x61,0x74,0x46,0x3a,0x0f,0x40,0x73,0x6b,0x69,0x70,0x70,0x61,0x62,0x6c,0x65,0x46,0x3a,0x0a,0x40,0x77,0x61,0x69,0x74,0x54,0x3a,0x0a,0x40,0x6c,0x69,0x73,0x74,0x5b,0x0b,0x6f,0x3a,0x15,0x52,0x50,0x47,0x3a,0x3a,0x4d,0x6f,0x76,0x65,0x43,0x6f,0x6d,0x6d,0x61,0x6e,0x64,0x07,0x3a,0x0a,0x40,0x63,0x6f,0x64,0x65,0x69,0x29,0x3a,0x10,0x40,0x70,0x61,0x72,0x61,0x6d,0x65,0x74,0x65,0x72,0x73,0x5b,0x00,0x6f,0x3b,0x0a,0x07,0x3b,0x0b,0x69,0x16,0x3b,0x0c,0x5b,0x00,0x6f,0x3b,0x0a,0x07,0x3b,0x0b,0x69,0x14,0x3b,0x0c,0x5b,0x06,0x69,0x08,0x6f,0x3b,0x0a,0x07,0x3b,0x0b,0x69,0x17,0x3b,0x0c,0x5b,0x00,0x6f,0x3b,0x0a,0x07,0x3b,0x0b,0x69,0x14,0x3b,0x0c,0x5b,0x06,0x69,0x08,0x6f,0x3b,0x0a,0x07,0x3b,0x0b,0x69,0x00,0x3b,0x0c,0x5b,0x00))
  ChangeSelfSwitch("A",0)
  ChangeInventoryWeapon(420,0,0,1,false)
  0()
 PAGE   2
  // condition: self-switch A is ON
  0()



EVENT   10
 PAGE   1
  250(bytes(0x04,0x08,0x6f,0x3a,0x0c,0x52,0x50,0x47,0x3a,0x3a,0x53,0x45,0x08,0x3a,0x0a,0x40,0x6e,0x61,0x6d,0x65,0x49,0x22,0x0a,0x43,0x68,0x65,0x73,0x74,0x06,0x3a,0x06,0x45,0x54,0x3a,0x0b,0x40,0x70,0x69,0x74,0x63,0x68,0x69,0x69,0x3a,0x0c,0x40,0x76,0x6f,0x6c,0x75,0x6d,0x65,0x69,0x55))
  205(0,bytes(0x04,0x08,0x6f,0x3a,0x13,0x52,0x50,0x47,0x3a,0x3a,0x4d,0x6f,0x76,0x65,0x52,0x6f,0x75,0x74,0x65,0x09,0x3a,0x0c,0x40,0x72,0x65,0x70,0x65,0x61,0x74,0x46,0x3a,0x0f,0x40,0x73,0x6b,0x69,0x70,0x70,0x61,0x62,0x6c,0x65,0x46,0x3a,0x0a,0x40,0x77,0x61,0x69,0x74,0x54,0x3a,0x0a,0x40,0x6c,0x69,0x73,0x74,0x5b,0x0b,0x6f,0x3a,0x15,0x52,0x50,0x47,0x3a,0x3a,0x4d,0x6f,0x76,0x65,0x43,0x6f,0x6d,0x6d,0x61,0x6e,0x64,0x07,0x3a,0x0a,0x40,0x63,0x6f,0x64,0x65,0x69,0x29,0x3a,0x10,0x40,0x70,0x61,0x72,0x61,0x6d,0x65,0x74,0x65,0x72,0x73,0x5b,0x00,0x6f,0x3b,0x0a,0x07,0x3b,0x0b,0x69,0x16,0x3b,0x0c,0x5b,0x00,0x6f,0x3b,0x0a,0x07,0x3b,0x0b,0x69,0x14,0x3b,0x0c,0x5b,0x06,0x69,0x08,0x6f,0x3b,0x0a,0x07,0x3b,0x0b,0x69,0x17,0x3b,0x0c,0x5b,0x00,0x6f,0x3b,0x0a,0x07,0x3b,0x0b,0x69,0x14,0x3b,0x0c,0x5b,0x06,0x69,0x08,0x6f,0x3b,0x0a,0x07,0x3b,0x0b,0x69,0x00,0x3b,0x0c,0x5b,0x00))
  ChangeSelfSwitch("A",0)
  ChangeInventory_Item(109,0,0,1)
  0()
 PAGE   2
  // condition: self-switch A is ON
  0()



EVENT   11
 PAGE   1
  250(bytes(0x04,0x08,0x6f,0x3a,0x0c,0x52,0x50,0x47,0x3a,0x3a,0x53,0x45,0x08,0x3a,0x0a,0x40,0x6e,0x61,0x6d,0x65,0x49,0x22,0x0a,0x43,0x68,0x65,0x73,0x74,0x06,0x3a,0x06,0x45,0x54,0x3a,0x0b,0x40,0x70,0x69,0x74,0x63,0x68,0x69,0x69,0x3a,0x0c,0x40,0x76,0x6f,0x6c,0x75,0x6d,0x65,0x69,0x55))
  205(0,bytes(0x04,0x08,0x6f,0x3a,0x13,0x52,0x50,0x47,0x3a,0x3a,0x4d,0x6f,0x76,0x65,0x52,0x6f,0x75,0x74,0x65,0x09,0x3a,0x0c,0x40,0x72,0x65,0x70,0x65,0x61,0x74,0x46,0x3a,0x0f,0x40,0x73,0x6b,0x69,0x70,0x70,0x61,0x62,0x6c,0x65,0x46,0x3a,0x0a,0x40,0x77,0x61,0x69,0x74,0x54,0x3a,0x0a,0x40,0x6c,0x69,0x73,0x74,0x5b,0x0b,0x6f,0x3a,0x15,0x52,0x50,0x47,0x3a,0x3a,0x4d,0x6f,0x76,0x65,0x43,0x6f,0x6d,0x6d,0x61,0x6e,0x64,0x07,0x3a,0x0a,0x40,0x63,0x6f,0x64,0x65,0x69,0x29,0x3a,0x10,0x40,0x70,0x61,0x72,0x61,0x6d,0x65,0x74,0x65,0x72,0x73,0x5b,0x00,0x6f,0x3b,0x0a,0x07,0x3b,0x0b,0x69,0x16,0x3b,0x0c,0x5b,0x00,0x6f,0x3b,0x0a,0x07,0x3b,0x0b,0x69,0x14,0x3b,0x0c,0x5b,0x06,0x69,0x08,0x6f,0x3b,0x0a,0x07,0x3b,0x0b,0x69,0x17,0x3b,0x0c,0x5b,0x00,0x6f,0x3b,0x0a,0x07,0x3b,0x0b,0x69,0x14,0x3b,0x0c,0x5b,0x06,0x69,0x08,0x6f,0x3b,0x0a,0x07,0x3b,0x0b,0x69,0x00,0x3b,0x0c,0x5b,0x00))
  ChangeSelfSwitch("A",0)
  ChangeInventory_Item(208,0,0,1)
  0()
 PAGE   2
  // condition: self-switch A is ON
  0()



EVENT   12
 PAGE   1
  250(bytes(0x04,0x08,0x6f,0x3a,0x0c,0x52,0x50,0x47,0x3a,0x3a,0x53,0x45,0x08,0x3a,0x0a,0x40,0x6e,0x61,0x6d,0x65,0x49,0x22,0x0a,0x43,0x68,0x65,0x73,0x74,0x06,0x3a,0x06,0x45,0x54,0x3a,0x0b,0x40,0x70,0x69,0x74,0x63,0x68,0x69,0x69,0x3a,0x0c,0x40,0x76,0x6f,0x6c,0x75,0x6d,0x65,0x69,0x55))
  205(0,bytes(0x04,0x08,0x6f,0x3a,0x13,0x52,0x50,0x47,0x3a,0x3a,0x4d,0x6f,0x76,0x65,0x52,0x6f,0x75,0x74,0x65,0x09,0x3a,0x0c,0x40,0x72,0x65,0x70,0x65,0x61,0x74,0x46,0x3a,0x0f,0x40,0x73,0x6b,0x69,0x70,0x70,0x61,0x62,0x6c,0x65,0x46,0x3a,0x0a,0x40,0x77,0x61,0x69,0x74,0x54,0x3a,0x0a,0x40,0x6c,0x69,0x73,0x74,0x5b,0x0b,0x6f,0x3a,0x15,0x52,0x50,0x47,0x3a,0x3a,0x4d,0x6f,0x76,0x65,0x43,0x6f,0x6d,0x6d,0x61,0x6e,0x64,0x07,0x3a,0x0a,0x40,0x63,0x6f,0x64,0x65,0x69,0x29,0x3a,0x10,0x40,0x70,0x61,0x72,0x61,0x6d,0x65,0x74,0x65,0x72,0x73,0x5b,0x00,0x6f,0x3b,0x0a,0x07,0x3b,0x0b,0x69,0x16,0x3b,0x0c,0x5b,0x00,0x6f,0x3b,0x0a,0x07,0x3b,0x0b,0x69,0x14,0x3b,0x0c,0x5b,0x06,0x69,0x08,0x6f,0x3b,0x0a,0x07,0x3b,0x0b,0x69,0x17,0x3b,0x0c,0x5b,0x00,0x6f,0x3b,0x0a,0x07,0x3b,0x0b,0x69,0x14,0x3b,0x0c,0x5b,0x06,0x69,0x08,0x6f,0x3b,0x0a,0x07,0x3b,0x0b,0x69,0x00,0x3b,0x0c,0x5b,0x00))
  ChangeSelfSwitch("A",0)
  ChangeInventory_Item(207,0,0,1)
  0()
 PAGE   2
  // condition: self-switch A is ON
  0()



EVENT   13
 PAGE   1
  If(0,4,0)
   ShowMessageFace("alice_fc5",0,0,2,1)
   ShowMessage("【アリス】")
   ShowMessage("ここが、魔導学園……")
   ShowMessage("確かに、魔導師の気配をあちこちから感じるな。")
   ShowMessageFace("alice_fc5",2,0,2,2)
   ShowMessage("【アリス】")
   ShowMessage("まだ学生といっても、気を抜くなよ。")
   ShowMessage("相手はメフィストの弟子達、それなりの強者のはずだ。")
   0()
  EndIf()
  If(0,5,0)
   ShowMessageFace("iriasu_fc4",7,0,2,3)
   ShowMessage("【イリアス】")
   ShowMessage("ここが、魔導学園……")
   ShowMessage("魔導師の生徒が、あちこちにうろついているようですね。")
   ShowMessageFace("iriasu_fc4",7,0,2,4)
   ShowMessage("【イリアス】")
   ShowMessage("敵は学生とはいえ、気を抜いてはいきませんよ。")
   ShowMessage("いずれも、それなりの魔導を習得しているはずです。")
   0()
  EndIf()
  If(4,167,0)
   ShowMessageFace("lusia_fc1",0,0,2,5)
   ShowMessage("【ルシア】")
   ShowMessage("あの魔導顧問の教え子達……")
   ShowMessage("学生といえども、決して油断はできませんね。")
   0()
  EndIf()
  If(4,134,0)
   ShowMessageFace("chrom_fc2",0,0,2,6)
   ShowMessage("【クロム】")
   ShowMessage("儂も、学校に通いたかった……")
   ShowMessage("……ような気がしないでもないぞ。")
   0()
  EndIf()
  If(0,6,0)
   ShowMessageFace("sonia_fc2",2,0,2,7)
   ShowMessage("【ソニア】")
   ShowMessage("学園内を探るって、どこを調べるの……？")
   0()
  EndIf()
  ShowMessageFace("ruka_fc1",0,0,2,8)
  ShowMessage("【ルカ】")
  ShowMessage("悪事の証拠があるとしたら、メフィストの部屋だろうね。")
  ShowMessage("よし、行くぞ！")
  205(18,bytes(0x04,0x08,0x6f,0x3a,0x13,0x52,0x50,0x47,0x3a,0x3a,0x4d,0x6f,0x76,0x65,0x52,0x6f,0x75,0x74,0x65,0x09,0x3a,0x0c,0x40,0x72,0x65,0x70,0x65,0x61,0x74,0x46,0x3a,0x0f,0x40,0x73,0x6b,0x69,0x70,0x70,0x61,0x62,0x6c,0x65,0x46,0x3a,0x0a,0x40,0x77,0x61,0x69,0x74,0x54,0x3a,0x0a,0x40,0x6c,0x69,0x73,0x74,0x5b,0x08,0x6f,0x3a,0x15,0x52,0x50,0x47,0x3a,0x3a,0x4d,0x6f,0x76,0x65,0x43,0x6f,0x6d,0x6d,0x61,0x6e,0x64,0x07,0x3a,0x0a,0x40,0x63,0x6f,0x64,0x65,0x69,0x06,0x3a,0x10,0x40,0x70,0x61,0x72,0x61,0x6d,0x65,0x74,0x65,0x72,0x73,0x5b,0x00,0x6f,0x3b,0x0a,0x07,0x3b,0x0b,0x69,0x06,0x3b,0x0c,0x5b,0x00,0x6f,0x3b,0x0a,0x07,0x3b,0x0b,0x69,0x00,0x3b,0x0c,0x5b,0x00))
  PictureDisplay(5,"80_m_batterfly_st11",0,0,20,0,100,100,0,0)
  PictureDisplay(6,"80_m_tento_st11",0,0,-230,0,100,100,0,0)
  PictureDisplay(7,"80_m_dragonfly_st11",0,0,220,0,100,100,0,0)
  PictureMove(5,null,0,0,20,0,100,100,255,0,30,false)
  PictureMove(6,null,0,0,-230,0,100,100,255,0,30,false)
  PictureMove(7,null,0,0,220,0,100,100,255,0,30,true)
  ShowMessageFace("m_batterfly_fc1",3,0,2,9)
  ShowMessage("【生徒Ａ】")
  ShowMessage("あれぇ……？")
  ShowMessage("部外者が学園に入っちゃ、ダメなんだよぉ……？")
  ShowMessageFace("m_tento_fc1",3,0,2,10)
  ShowMessage("【生徒Ｂ】")
  ShowMessage("いけないんだ～♪　いけないんだ～♪")
  ShowMessageFace("m_dragonfly_fc1",2,0,2,11)
  ShowMessage("【生徒Ｃ】")
  ShowMessage("どうするの？　上級生か校長先生を呼ぶ？")
  ShowMessage("それとも……")
  If(0,6,0)
   ShowMessageFace("sonia_fc2",3,0,2,12)
   ShowMessage("【ソニア】")
   ShowMessage("あの、これには理由があってね……")
   0()
  Else()
   ShowMessageFace("ruka_fc1",0,0,2,13)
   ShowMessage("【ルカ】")
   ShowMessage("あの、これには理由があって……")
   0()
  EndIf()
  If(0,4,0)
   ShowMessageFace("alice_fc5",2,0,2,14)
   ShowMessage("【アリス】")
   ShowMessage("気を抜くな、そいつらは人間ではないぞ！")
   0()
  EndIf()
  If(0,5,0)
   ShowMessageFace("iriasu_fc4",7,0,2,15)
   ShowMessage("【イリアス】")
   ShowMessage("日和っている場合ですか、こいつらは魔物ですよ！")
   0()
  EndIf()
  ShowMessageFace("m_batterfly_fc1",3,0,2,16)
  ShowMessage("【生徒Ａ】")
  ShowMessage("えへへっ……侵入者は、オモチャにしてもいいんだよね♪")
  ShowMessageFace("m_tento_fc1",3,0,2,17)
  ShowMessage("【生徒Ｂ】")
  ShowMessage("やっちゃえ～♪　やっちゃえ～♪")
  ShowMessageFace("m_dragonfly_fc1",2,0,2,18)
  ShowMessage("【生徒Ｃ】")
  ShowMessage("宿題あるのに、面倒くさいなぁ……")
  250(bytes(0x04,0x08,0x6f,0x3a,0x0c,0x52,0x50,0x47,0x3a,0x3a,0x53,0x45,0x08,0x3a,0x0a,0x40,0x6e,0x61,0x6d,0x65,0x49,0x22,0x0b,0x4d,0x61,0x67,0x69,0x63,0x32,0x06,0x3a,0x06,0x45,0x54,0x3a,0x0b,0x40,0x70,0x69,0x74,0x63,0x68,0x69,0x69,0x3a,0x0c,0x40,0x76,0x6f,0x6c,0x75,0x6d,0x65,0x69,0x55))
  PictureDisplay(10,"sys_white",0,0,0,0,100,100,0,0)
  PictureMove(10,null,0,0,0,0,100,100,255,0,30,true)
  PictureDisplay(7,"80_m_batterfly_st01",0,0,0,130,100,100,255,0)
  PictureDisplay(6,"80_m_tento_st01",0,0,200,-30,100,100,255,0)
  PictureDisplay(5,"80_m_dragonfly_st01",0,0,-200,-30,100,100,255,0)
  PictureMove(10,null,0,0,0,0,100,100,0,0,30,true)
  PictureClear(10)
  ShowMessageFace("",0,0,2,19)
  ShowMessage("学園の生徒達は、真の姿をさらした！")
  If(4,41,0)
   ShowMessageFace("stein_fc2",0,0,2,20)
   ShowMessage("【プロメスティン】")
   ShowMessage("虫系で魔導タイプというのは珍しいですね。")
   ShowMessage("さすがは魔導学園、様々な生徒がいるようです……")
   0()
  EndIf()
  ShowMessageFace("m_batterfly_fc1",0,0,2,21)
  ShowMessage("【マジカルアゲハ】")
  ShowMessage("あははっ、遊んであげるね……♪")
  ShowMessageFace("ruka_fc1",0,0,2,22)
  ShowMessage("【ルカ】")
  ShowMessage("くっ……行くぞ！")
  If(4,185,0)
   ShowMessageFace("radio_fc1",0,0,2,23)
   ShowMessage("【ラディオ】")
   ShowMessage("虫を退治シマす……")
   0()
  EndIf()
  PictureClear(5)
  PictureClear(6)
  PictureClear(7)
  ChangeSwitch(81,81,0)
  Battle(0,650,false,false)
  ChangeSwitch(81,81,1)
  ChangeSelfSwitch("A",0)
  ChangeSwitch(2182,2182,0)
  If(0,4,0)
   ShowMessageFace("alice_fc5",0,0,2,24)
   ShowMessage("【アリス】")
   ShowMessage("やれやれ……学園潜入というより、学園襲撃だな。")
   ShowMessage("まあいい、先に進むぞ。")
   0()
  EndIf()
  If(0,5,0)
   ShowMessageFace("iriasu_fc4",0,0,2,25)
   ShowMessage("【イリアス】")
   ShowMessage("このまま、学園打通でメフィストの部屋に直行しましょう。")
   0()
  EndIf()
  0()
 PAGE   2
  // condition: self-switch A is ON
  0()



EVENT   14
 PAGE   1
  ShowMessageFace("",0,0,2,1)
  ShowMessage("学園の簡単な見取り図がある。")
  ShowMessage("メフィスト校長の部屋は、二階にあるようだ……")
  0()



EVENT   15
 PAGE   1
  ShowMessageFace("m_tento_fc1",0,0,2,1)
  ShowMessage("【マジカルテントウ】")
  ShowMessage("すっごくセクシーな新入生が入ったんだよ。")
  ShowMessage("あのヒトも、サキュバスだよね？")
  0()



EVENT   16
 PAGE   1
  ShowMessageFace("m_batterfly_fc1",0,0,2,1)
  ShowMessage("【マジカルアゲハ】")
  ShowMessage("面白い小説、ないかな……？")
  0()



EVENT   17
 PAGE   1
  If(1,827,0,2,1)
   If(0,1576,1)
    ShowMessageFace("mob_gakusya2_fc1",0,0,2,1)
    ShowMessage("【ルーファ】")
    ShowMessage("ねぇ、ボクも旅に出たいな……")
    ShowMessage("いっぱい勉強するから、いいでしょ？")
    ShowChoices(strings("仲間にする","仲間にしない"),0)
    IfPlayerPicksChoice(0,null)
     ShowMessageFace("mob_gakusya2_fc1",0,0,2,2)
     ShowMessage("【ルーファ】")
     ShowMessage("よ～し、いっぱい勉強するぞ～！")
     PictureClear(5)
     205(0,bytes(0x04,0x08,0x6f,0x3a,0x13,0x52,0x50,0x47,0x3a,0x3a,0x4d,0x6f,0x76,0x65,0x52,0x6f,0x75,0x74,0x65,0x09,0x3a,0x0c,0x40,0x72,0x65,0x70,0x65,0x61,0x74,0x46,0x3a,0x0f,0x40,0x73,0x6b,0x69,0x70,0x70,0x61,0x62,0x6c,0x65,0x46,0x3a,0x0a,0x40,0x77,0x61,0x69,0x74,0x54,0x3a,0x0a,0x40,0x6c,0x69,0x73,0x74,0x5b,0x09,0x6f,0x3a,0x15,0x52,0x50,0x47,0x3a,0x3a,0x4d,0x6f,0x76,0x65,0x43,0x6f,0x6d,0x6d,0x61,0x6e,0x64,0x07,0x3a,0x0a,0x40,0x63,0x6f,0x64,0x65,0x69,0x2a,0x3a,0x10,0x40,0x70,0x61,0x72,0x61,0x6d,0x65,0x74,0x65,0x72,0x73,0x5b,0x00,0x6f,0x3b,0x0a,0x07,0x3b,0x0b,0x69,0x0f,0x3b,0x0c,0x5b,0x00,0x6f,0x3b,0x0a,0x07,0x3b,0x0b,0x69,0x2c,0x3b,0x0c,0x5b,0x00,0x6f,0x3b,0x0a,0x07,0x3b,0x0b,0x69,0x00,0x3b,0x0c,0x5b,0x00))
     355("add_actor_ex(576)")
     249(bytes(0x04,0x08,0x6f,0x3a,0x0c,0x52,0x50,0x47,0x3a,0x3a,0x4d,0x45,0x08,0x3a,0x0a,0x40,0x6e,0x61,0x6d,0x65,0x49,0x22,0x0c,0x66,0x61,0x6e,0x66,0x61,0x6c,0x65,0x06,0x3a,0x06,0x45,0x54,0x3a,0x0b,0x40,0x70,0x69,0x74,0x63,0x68,0x69,0x69,0x3a,0x0c,0x40,0x76,0x6f,0x6c,0x75,0x6d,0x65,0x69,0x69))
     ShowMessageFace("",0,0,2,3)
     ShowMessage("ルーファが仲間に加わった！")
     Wait(60)
     EndEventProcessing()
     0()
    IfPlayerPicksChoice(1,null)
     ShowMessageFace("mob_gakusya2_fc1",1,0,2,4)
     ShowMessage("【ルーファ】")
     ShowMessage("ダメかぁ……もっと勉強するね。")
     0()
    404()
    0()
   EndIf()
   0()
  EndIf()
  RunCommonEvent(7261)
  0()
 PAGE   2
  // condition: party contains actor #576
  0()



EVENT   18
 PAGE   1
  0()
 PAGE   2
  // condition: switch 2182 is ON
  0()



EVENT   19
 PAGE   1
  250(bytes(0x04,0x08,0x6f,0x3a,0x0c,0x52,0x50,0x47,0x3a,0x3a,0x53,0x45,0x08,0x3a,0x0a,0x40,0x6e,0x61,0x6d,0x65,0x49,0x22,0x0a,0x49,0x74,0x65,0x6d,0x31,0x06,0x3a,0x06,0x45,0x54,0x3a,0x0b,0x40,0x70,0x69,0x74,0x63,0x68,0x69,0x69,0x3a,0x0c,0x40,0x76,0x6f,0x6c,0x75,0x6d,0x65,0x69,0x55))
  ChangeSelfSwitch("A",0)
  ChangeInventory_Item(4,0,0,1)
  0()
 PAGE   2
  // condition: self-switch A is ON
  0()



EVENT   20
 PAGE   1
  250(bytes(0x04,0x08,0x6f,0x3a,0x0c,0x52,0x50,0x47,0x3a,0x3a,0x53,0x45,0x08,0x3a,0x0a,0x40,0x6e,0x61,0x6d,0x65,0x49,0x22,0x0a,0x49,0x74,0x65,0x6d,0x31,0x06,0x3a,0x06,0x45,0x54,0x3a,0x0b,0x40,0x70,0x69,0x74,0x63,0x68,0x69,0x69,0x3a,0x0c,0x40,0x76,0x6f,0x6c,0x75,0x6d,0x65,0x69,0x55))
  ChangeSelfSwitch("A",0)
  ChangeInventory_Item(429,0,0,1)
  0()
 PAGE   2
  // condition: self-switch A is ON
  0()



EVENT   21
 PAGE   1
  PictureDisplay(5,"80_arumaeruma_st71",0,0,0,0,100,100,0,0)
  PictureMove(5,null,0,0,0,0,100,100,255,0,30,true)
  If(2,"A",1)
   ChangeSelfSwitch("A",0)
   241(bytes(0x04,0x08,0x6f,0x3a,0x0d,0x52,0x50,0x47,0x3a,0x3a,0x42,0x47,0x4d,0x08,0x3a,0x0a,0x40,0x6e,0x61,0x6d,0x65,0x49,0x22,0x10,0x73,0x63,0x65,0x6e,0x65,0x5f,0x63,0x6f,0x6d,0x69,0x31,0x06,0x3a,0x06,0x45,0x54,0x3a,0x0c,0x40,0x76,0x6f,0x6c,0x75,0x6d,0x65,0x69,0x69,0x3a,0x0b,0x40,0x70,0x69,0x74,0x63,0x68,0x69,0x69))
   ShowMessageFace("arumaeruma_fc3",3,0,2,1)
   ShowMessage("【アルマエルマ】")
   ShowMessage("あら、あなた達は……")
   If(0,4,0)
    ShowMessageFace("alice_fc5",6,0,2,2)
    ShowMessage("【アリス】")
    ShowMessage("アルマエルマ！？")
    ShowMessage("貴様、なんだその格好は！？")
    0()
   EndIf()
   If(0,5,0)
    ShowMessageFace("iriasu_fc4",5,0,2,3)
    ShowMessage("【イリアス】")
    ShowMessage("アルマエルマ！？")
    ShowMessage("その格好はなんですか！？")
    0()
   EndIf()
   ShowMessageFace("arumaeruma_fc3",3,0,2,4)
   ShowMessage("【アルマエルマ】")
   ShowMessage("見れば分かるでしょう、学園への潜入捜査よ。")
   ShowMessage("私をハメようとしたメフィストについて、調べないとね。")
   If(0,4,0)
    ShowMessageFace("alice_fc5",5,0,2,5)
    ShowMessage("【アリス】")
    ShowMessage("そ、そうか……")
    ShowMessage("自由にするがいい。")
    0()
   EndIf()
   If(0,5,0)
    ShowMessageFace("iriasu_fc4",2,0,2,6)
    ShowMessage("【イリアス】")
    ShowMessage("自分の歳を考えるのですね……")
    0()
   EndIf()
   241(bytes(0x04,0x08,0x6f,0x3a,0x0d,0x52,0x50,0x47,0x3a,0x3a,0x42,0x47,0x4d,0x08,0x3a,0x0a,0x40,0x6e,0x61,0x6d,0x65,0x49,0x22,0x12,0x64,0x75,0x6e,0x67,0x65,0x6f,0x6e,0x5f,0x74,0x6f,0x73,0x79,0x6f,0x06,0x3a,0x06,0x45,0x54,0x3a,0x0c,0x40,0x76,0x6f,0x6c,0x75,0x6d,0x65,0x69,0x69,0x3a,0x0b,0x40,0x70,0x69,0x74,0x63,0x68,0x69,0x69))
   ShowMessageFace("arumaeruma_fc3",3,0,2,7)
   ShowMessage("【アルマエルマ】")
   ShowMessage("ところで……")
   ShowMessage("ちょうど今、メフィストは誰かと密談してるみたいよ。")
   ShowMessageFace("arumaeruma_fc3",3,0,2,8)
   ShowMessage("【アルマエルマ】")
   ShowMessage("すぐに学園長の部屋に踏み込めば……")
   ShowMessage("裏に何があるのか、分かるかもね♪")
   If(0,6,0)
    ShowMessageFace("sonia_fc1",5,0,2,9)
    ShowMessage("【ソニア】")
    ShowMessage("何者かと密談……")
    ShowMessage("その現場を押さえれば、この上ない証拠になるわね！")
    0()
   Else()
    ShowMessageFace("ruka_fc1",0,0,2,10)
    ShowMessage("【ルカ】")
    ShowMessage("その場を押さえれば、悪巧みの証拠になる！")
    ShowMessage("今すぐ行ってみよう！")
    0()
   EndIf()
   If(4,79,0)
    ShowMessageFace("nuruko_fc1",0,0,2,11)
    ShowMessage("【ヌルコ】")
    ShowMessage("きゅきゅー！")
    0()
   EndIf()
   PictureClear(5)
   EndEventProcessing()
   0()
  EndIf()
  ShowMessageFace("arumaeruma_fc3",3,0,2,12)
  ShowMessage("【アルマエルマ】")
  ShowMessage("私は、もう少し学園内を探ってみるわ。")
  ShowMessage("この格好も、気に入っちゃったし……♪")
  If(4,57,0)
   ShowMessageFace("inp_fc3",0,0,2,13)
   ShowMessage("【ルミ】")
   ShowMessage("押忍！")
   0()
  EndIf()
  PictureClear(5)
  0()
 PAGE   2
  // condition: variable 1052 >= 8
  0()



EVENT   22
 PAGE   1
  ShowMessageFace("m_succubus_fc1",0,0,2,1)
  ShowMessage("【マジカルサキュバス】")
  ShowMessage("あっ……サボってるの、内緒にしてね。")
  ShowMessage("後でイイ事してあげるから……")
  If(4,203,0)
   ShowMessageFace("tatunoko_k_fc1",0,0,2,2)
   ShowMessage("【たつこ】")
   ShowMessage("いい事をするのですか……？")
   ShowMessage("とっても感心な学生なのです！")
   ShowMessageFace("m_succubus_fc1",1,0,2,3)
   ShowMessage("【マジカルサキュバス】")
   ShowMessage("この子、かわいい……♪")
   0()
  EndIf()
  0()



EVENT   23
 PAGE   1
  ShowMessageFace("m_elf_fc1",0,0,2,1)
  ShowMessage("【マジカルエルフ】")
  ShowMessage("図書館は静かに！")
  0()



EVENT   24
 PAGE   1
  ShowMessageFace("m_dragonfly_fc1",0,0,2,1)
  ShowMessage("【マジカルフライ】")
  ShowMessage("魔導実験、大好きなの……")
  355("actor_label_jump")
  EndEventProcessing()
  DefineLabel("41")
  ShowMessageFace("stein_fc2",1,0,2,2)
  ShowMessage("【プロメスティン】")
  ShowMessage("まさに科学の醍醐味ですよね！")
  EndEventProcessing()
  DefineLabel("134")
  ShowMessageFace("chrom_fc2",1,0,2,3)
  ShowMessage("【クロム】")
  ShowMessage("儂も実験大好きなのじゃ！")
  EndEventProcessing()
  DefineLabel("182")
  ShowMessageFace("c_homunculus_fc1",0,0,2,4)
  ShowMessage("【クロウリー】")
  ShowMessage("私で実験してみる？")
  ShowMessage("色々と取り揃えているわ……")
  EndEventProcessing()
  0()



EVENT   25
 PAGE   1
  ShowMessageFace("m_elf_fc1",0,0,2,1)
  ShowMessage("【マジカルエルフ】")
  ShowMessage("ほら、ちゃんと聞いてるの？")
  ShowMessage("もう一度、三元素について確認するわよ！")
  If(4,163,0)
   ShowMessageFace("lily_fc1",3,0,2,2)
   ShowMessage("【リリィ】")
   ShowMessage("三元素の基礎論……")
   ShowMessage("懐かしいわね、私は本で学んだわ。")
   0()
  EndIf()
  0()



EVENT   26
 PAGE   1
  ShowMessageFace("m_dragonfly_fc1",0,0,2,1)
  ShowMessage("【マジカルフライ】")
  ShowMessage("この学園に男はいないのかって？")
  ShowMessage("教材や食事として、先生が持ち込んでくるくらいだね。")
  0()



EVENT   27
 PAGE   1
  ShowMessageFace("m_batterfly_fc1",0,0,2,1)
  ShowMessage("【マジカルアゲハ】")
  ShowMessage("早く授業終わらないかな～？")
  0()



EVENT   28
 PAGE   1
  ShowMessageFace("m_tento_fc1",0,0,2,1)
  ShowMessage("【マジカルテントウ】")
  ShowMessage("上級生のヒトは、あたし達に授業してくれるの。")
  ShowMessage("とっても面白くないんだよ！")
  0()



EVENT   29
 PAGE   1
  ShowMessageFace("m_succubus_fc1",0,0,2,1)
  ShowMessage("【マジカルサキュバス】")
  ShowMessage("淫魔で最高の魔導師っていったら……")
  ShowMessage("なんと言っても、サキュバス村のウィッチさんよね。")
  ShowMessageFace("m_succubus_fc1",0,0,2,2)
  ShowMessage("【マジカルサキュバス】")
  ShowMessage("世界でも指折りの魔導師なんだから、憧れるわ♪")
  355("actor_label_jump")
  EndEventProcessing()
  DefineLabel("286")
  ShowMessageFace("witchs_fc1",1,0,2,3)
  ShowMessage("【ウィッチ】")
  ShowMessage("あら、光栄ね……")
  ShowMessageFace("m_succubus_fc1",1,0,2,4)
  ShowMessage("【マジカルサキュバス】")
  ShowMessage("えっ、本人……！？")
  ShowMessage("すごい！　サイン下さい！")
  EndEventProcessing()
  0()



EVENT   30
 PAGE   1
  ShowMessageFace("m_elf_fc1",0,0,2,1)
  ShowMessage("【マジカルエルフ】")
  ShowMessage("何をウロウロしてるの！")
  ShowMessage("席について、自習しなさい！")
  0()



EVENT   31
 PAGE   1
  ShowMessageFace("m_fairy_fc1",1,0,2,1)
  ShowMessage("【マジカルピクシー】")
  ShowMessage("自習とか、マジメにやる気ないし～♪")
  0()



EVENT   32
 PAGE   1
  ShowMessageFace("m_dragonfly_fc1",0,0,2,1)
  ShowMessage("【マジカルフライ】")
  ShowMessage("あ……侵入者？")
  ShowMessage("襲ったりしないよ、野蛮な生徒ばかりだと思わないでほしいな。")
  355("actor_label_jump")
  EndEventProcessing()
  DefineLabel("165")
  ShowMessageFace("onaho_fc1",0,0,2,2)
  ShowMessage("【ナホ】")
  ShowMessage("話が分かる人も、いるんですね……♪")
  EndEventProcessing()
  0()



EVENT   33
 PAGE   1
  ShowMessageFace("m_batterfly_fc1",0,0,2,1)
  ShowMessage("【マジカルアゲハ】")
  ShowMessage("白魔法って、面白くないなぁ……")
  ShowMessage("黒魔法は、ハデで楽しいのにね。")
  355("actor_label_jump")
  EndEventProcessing()
  DefineLabel("163")
  ShowMessageFace("lily_fc1",3,0,2,2)
  ShowMessage("【リリィ】")
  ShowMessage("それには同意するわ……")
  EndEventProcessing()
  0()



EVENT   34
 PAGE   1
  If(1,1052,0,7,2)
   ShowMessageFace("m_succubus_fc1",0,0,2,1)
   ShowMessage("【マジカルサキュバス】")
   ShowMessage("ウソよね……")
   ShowMessage("あのヒトって、まさか……")
   If(4,57,0)
    ShowMessageFace("inp_fc3",0,0,2,2)
    ShowMessage("【ルミ】")
    ShowMessage("………！！")
    0()
   EndIf()
   EndEventProcessing()
   0()
  EndIf()
  If(1,1052,0,8,1)
   ShowMessageFace("m_succubus_fc1",0,0,2,3)
   ShowMessage("【マジカルサキュバス】")
   ShowMessage("今日も学園は平和ね。")
   ShowMessage("外の世界は大荒れらしいのに、いいのかしら……")
   EndEventProcessing()
   0()
  EndIf()
  0()

EVENT   35
 PAGE   1
  ShowMessageFace("m_dragonfly_fc1",0,0,2,1)
  ShowMessage("【マジカルフライ】")
  ShowMessage("読書は好き。体育は嫌い……")
  355("actor_label_jump")
  EndEventProcessing()
  DefineLabel("120")
  ShowMessageFace("page257_fc1",0,0,2,2)
  ShowMessage("【ヨーコ】")
  ShowMessage("ええ、同感です……")
  EndEventProcessing()
  DefineLabel("121")
  ShowMessageFace("page65537_fc1",1,0,2,3)
  ShowMessage("【コーネリア】")
  ShowMessage("読書も運動も、バランス良く。")
  ShowMessage("どちらか一辺倒ではいけませんよ……")
  EndEventProcessing()
  0()



EVENT   36
 PAGE   1
  ShowMessageFace("m_tento_fc1",0,0,2,1)
  ShowMessage("【マジカルテントウ】")
  ShowMessage("おなか、すいたな……")
  355("actor_label_jump")
  EndEventProcessing()
  DefineLabel("92")
  ShowMessageFace("eater_fc1",0,0,2,2)
  ShowMessage("【イーター】")
  ShowMessage("あたしも……")
  EndEventProcessing()
  0()



EVENT   37
 PAGE   1
  ShowMessageFace("m_dragonfly_fc1",0,0,2,1)
  ShowMessage("【マジカルフライ】")
  ShowMessage("今日は帰りに、オレンジジュース買っていこうかな。")
  ShowMessage("買い食いは禁止なんだけど……いいよね。")
  0()



EVENT   38
 PAGE   1
  ShowMessageFace("m_batterfly_fc1",0,0,2,1)
  ShowMessage("【マジカルアゲハ】")
  ShowMessage("メフィスト先生はすごいんだよ。")
  ShowMessage("生徒全員の顔の見分けがつくんだから！")
  ShowMessageFace("m_dragonfly_fc1",0,0,2,2)
  ShowMessage("【マジカルフライ】")
  ShowMessage("ボク達でさえ、しょっちゅう分からなくなるのにね……")
  355("actor_label_jump")
  EndEventProcessing()
  DefineLabel("204")
  ShowMessageFace("umiusi_k_fc1",0,0,2,3)
  ShowMessage("【ステイシー】")
  ShowMessage("私も実は、たつのこちゃん達の区別がつきません……")
  EndEventProcessing()
  0()



EVENT   39
 PAGE   1
  ShowMessageFace("m_elf_fc1",0,0,2,1)
  ShowMessage("【マジカルエルフ】")
  ShowMessage("こら！　廊下を走っちゃダメでしょ！")
  355("actor_label_jump")
  EndEventProcessing()
  DefineLabel("101")
  ShowMessageFace("cent2_fc1",0,0,2,2)
  ShowMessage("【リヒティーヌ】")
  ShowMessage("存在意義を否定しないでよ……")
  EndEventProcessing()
  DefineLabel("202")
  ShowMessageFace("bonny_fc1",0,0,2,3)
  ShowMessage("【ボニー】")
  ShowMessage("アシェルのようなガミガミ女がいるな……")
  EndEventProcessing()
  DefineLabel("207")
  ShowMessageFace("centa_fc1",0,0,2,4)
  ShowMessage("【ポニー】")
  ShowMessage("無茶を言うな！")
  EndEventProcessing()
  0()



EVENT   40
 PAGE   1
  ShowMessageFace("m_tento_fc1",0,0,2,1)
  ShowMessage("【マジカルテントウ】")
  ShowMessage("ガミガミエルフ……")
  0()


