// EVENT 0037
Name "Get:Rank 5 Single Item"

ChangeVariable(11,11,0,2,1,180)
If(1,11,0,1,0)
 ChangeInventory_Item(6,0,0,1)
 ShowMessageFace("",0,0,2,1)
 ShowMessage("You obtain \\ii[6]!")
 EndEventProcessing()
 0()
EndIf()
If(1,11,0,2,0)
 ChangeInventory_Item(9,0,0,1)
 ShowMessageFace("",0,0,2,2)
 ShowMessage("You obtain \\ii[9]!")
 EndEventProcessing()
 0()
EndIf()
If(1,11,0,3,0)
 ChangeInventory_Item(24,0,0,1)
 ShowMessageFace("",0,0,2,3)
 ShowMessage("You obtain \\ii[24]!")
 EndEventProcessing()
 0()
EndIf()
If(1,11,0,4,0)
 ChangeInventory_Item(26,0,0,1)
 ShowMessageFace("",0,0,2,4)
 ShowMessage("You obtain \\ii[26]!")
 EndEventProcessing()
 0()
EndIf()
If(1,11,0,5,0)
 ChangeInventory_Item(27,0,0,1)
 ShowMessageFace("",0,0,2,5)
 ShowMessage("You obtain \\ii[27]!")
 EndEventProcessing()
 0()
EndIf()
If(1,11,0,6,0)
 ChangeInventory_Item(29,0,0,1)
 ShowMessageFace("",0,0,2,6)
 ShowMessage("You obtain \\ii[29]!")
 EndEventProcessing()
 0()
EndIf()
If(1,11,0,7,0)
 ChangeInventory_Item(30,0,0,1)
 ShowMessageFace("",0,0,2,7)
 ShowMessage("You obtain \\ii[30]!")
 EndEventProcessing()
 0()
EndIf()
If(1,11,0,8,0)
 ChangeInventory_Item(31,0,0,1)
 ShowMessageFace("",0,0,2,8)
 ShowMessage("You obtain \\ii[31]!")
 EndEventProcessing()
 0()
EndIf()
If(1,11,0,9,0)
 ChangeInventory_Item(244,0,0,1)
 ShowMessageFace("",0,0,2,9)
 ShowMessage("You obtain \\ii[244]!")
 EndEventProcessing()
 0()
EndIf()
If(1,11,0,10,0)
 ChangeInventory_Item(245,0,0,1)
 ShowMessageFace("",0,0,2,10)
 ShowMessage("You obtain \\ii[245]!")
 EndEventProcessing()
 0()
EndIf()
If(1,11,0,11,0)
 ChangeInventory_Item(246,0,0,1)
 ShowMessageFace("",0,0,2,11)
 ShowMessage("You obtain \\ii[246]!")
 EndEventProcessing()
 0()
EndIf()
If(1,11,0,12,0)
 ChangeInventory_Item(247,0,0,1)
 ShowMessageFace("",0,0,2,12)
 ShowMessage("You obtain \\ii[247]!")
 EndEventProcessing()
 0()
EndIf()
If(1,11,0,13,0)
 ChangeInventory_Item(248,0,0,1)
 ShowMessageFace("",0,0,2,13)
 ShowMessage("You obtain \\ii[248]!")
 EndEventProcessing()
 0()
EndIf()
If(1,11,0,14,0)
 ChangeInventory_Item(249,0,0,1)
 ShowMessageFace("",0,0,2,14)
 ShowMessage("You obtain \\ii[249]!")
 EndEventProcessing()
 0()
EndIf()
If(1,11,0,15,0)
 ChangeInventory_Item(250,0,0,1)
 ShowMessageFace("",0,0,2,15)
 ShowMessage("You obtain \\ii[250]!")
 EndEventProcessing()
 0()
EndIf()
If(1,11,0,16,0)
 ChangeInventory_Item(251,0,0,1)
 ShowMessageFace("",0,0,2,16)
 ShowMessage("You obtain \\ii[251]!")
 EndEventProcessing()
 0()
EndIf()
If(1,11,0,17,0)
 ChangeInventory_Item(252,0,0,1)
 ShowMessageFace("",0,0,2,17)
 ShowMessage("You obtain \\ii[252]!")
 EndEventProcessing()
 0()
EndIf()
If(1,11,0,18,0)
 ChangeInventory_Item(253,0,0,1)
 ShowMessageFace("",0,0,2,18)
 ShowMessage("You obtain \\ii[253]!")
 EndEventProcessing()
 0()
EndIf()
If(1,11,0,19,0)
 ChangeInventoryArmor(1005,0,0,1,false)
 ShowMessageFace("",0,0,2,19)
 ShowMessage("You obtain \\ia[1005]!")
 EndEventProcessing()
 0()
EndIf()
If(1,11,0,20,0)
 ChangeInventoryArmor(1010,0,0,1,false)
 ShowMessageFace("",0,0,2,20)
 ShowMessage("You obtain \\ia[1010]!")
 EndEventProcessing()
 0()
EndIf()
If(1,11,0,21,0)
 ChangeInventoryArmor(1015,0,0,1,false)
 ShowMessageFace("",0,0,2,21)
 ShowMessage("You obtain \\ia[1015]!")
 EndEventProcessing()
 0()
EndIf()
If(1,11,0,22,0)
 ChangeInventoryArmor(1020,0,0,1,false)
 ShowMessageFace("",0,0,2,22)
 ShowMessage("You obtain \\ia[1020]!")
 EndEventProcessing()
 0()
EndIf()
If(1,11,0,23,0)
 ChangeInventoryArmor(1025,0,0,1,false)
 ShowMessageFace("",0,0,2,23)
 ShowMessage("You obtain \\ia[1025]!")
 EndEventProcessing()
 0()
EndIf()
If(1,11,0,24,0)
 ChangeInventoryArmor(1030,0,0,1,false)
 ShowMessageFace("",0,0,2,24)
 ShowMessage("You obtain \\ia[1030]!")
 EndEventProcessing()
 0()
EndIf()
If(1,11,0,25,0)
 ChangeInventoryArmor(1035,0,0,1,false)
 ShowMessageFace("",0,0,2,25)
 ShowMessage("You obtain \\ia[1035]!")
 EndEventProcessing()
 0()
EndIf()
If(1,11,0,26,0)
 ChangeInventoryArmor(1040,0,0,1,false)
 ShowMessageFace("",0,0,2,26)
 ShowMessage("You obtain \\ia[1040]!")
 EndEventProcessing()
 0()
EndIf()
If(1,11,0,27,0)
 ChangeInventoryArmor(1045,0,0,1,false)
 ShowMessageFace("",0,0,2,27)
 ShowMessage("You obtain \\ia[1045]!")
 EndEventProcessing()
 0()
EndIf()
If(1,11,0,28,0)
 ChangeInventoryArmor(1049,0,0,1,false)
 ShowMessageFace("",0,0,2,28)
 ShowMessage("You obtain \\ia[1049]!")
 EndEventProcessing()
 0()
EndIf()
If(1,11,0,29,0)
 ChangeInventoryArmor(1052,0,0,1,false)
 ShowMessageFace("",0,0,2,29)
 ShowMessage("You obtain \\ia[1052]!")
 EndEventProcessing()
 0()
EndIf()
If(1,11,0,30,0)
 ChangeInventoryArmor(1058,0,0,1,false)
 ShowMessageFace("",0,0,2,30)
 ShowMessage("You obtain \\ia[1058]!")
 EndEventProcessing()
 0()
EndIf()
If(1,11,0,31,0)
 ChangeInventoryArmor(1063,0,0,1,false)
 ShowMessageFace("",0,0,2,31)
 ShowMessage("You obtain \\ia[1063]!")
 EndEventProcessing()
 0()
EndIf()
If(1,11,0,32,0)
 ChangeInventoryArmor(1069,0,0,1,false)
 ShowMessageFace("",0,0,2,32)
 ShowMessage("You obtain \\ia[1069]!")
 EndEventProcessing()
 0()
EndIf()
If(1,11,0,33,0)
 ChangeInventoryArmor(1074,0,0,1,false)
 ShowMessageFace("",0,0,2,33)
 ShowMessage("You obtain \\ia[1074]!")
 EndEventProcessing()
 0()
EndIf()
If(1,11,0,34,0)
 ChangeInventoryArmor(1079,0,0,1,false)
 ShowMessageFace("",0,0,2,34)
 ShowMessage("You obtain \\ia[1079]!")
 EndEventProcessing()
 0()
EndIf()
If(1,11,0,35,0)
 ChangeInventoryArmor(1084,0,0,1,false)
 ShowMessageFace("",0,0,2,35)
 ShowMessage("You obtain \\ia[1084]!")
 EndEventProcessing()
 0()
EndIf()
If(1,11,0,36,0)
 ChangeInventoryArmor(1088,0,0,1,false)
 ShowMessageFace("",0,0,2,36)
 ShowMessage("You obtain \\ia[1088]!")
 EndEventProcessing()
 0()
EndIf()
If(1,11,0,37,0)
 ChangeInventoryArmor(1094,0,0,1,false)
 ShowMessageFace("",0,0,2,37)
 ShowMessage("You obtain \\ia[1094]!")
 EndEventProcessing()
 0()
EndIf()
If(1,11,0,38,0)
 ChangeInventoryArmor(1098,0,0,1,false)
 ShowMessageFace("",0,0,2,38)
 ShowMessage("You obtain \\ia[1098]!")
 EndEventProcessing()
 0()
EndIf()
If(1,11,0,39,0)
 ChangeInventoryArmor(1102,0,0,1,false)
 ShowMessageFace("",0,0,2,39)
 ShowMessage("You obtain \\ia[1102]!")
 EndEventProcessing()
 0()
EndIf()
If(1,11,0,40,0)
 ChangeInventoryArmor(1108,0,0,1,false)
 ShowMessageFace("",0,0,2,40)
 ShowMessage("You obtain \\ia[1108]!")
 EndEventProcessing()
 0()
EndIf()
If(1,11,0,41,0)
 ChangeInventoryArmor(1110,0,0,1,false)
 ShowMessageFace("",0,0,2,41)
 ShowMessage("You obtain \\ia[1110]!")
 EndEventProcessing()
 0()
EndIf()
If(1,11,0,42,0)
 ChangeInventoryArmor(1117,0,0,1,false)
 ShowMessageFace("",0,0,2,42)
 ShowMessage("You obtain \\ia[1117]!")
 EndEventProcessing()
 0()
EndIf()
If(1,11,0,43,0)
 ChangeInventoryArmor(1119,0,0,1,false)
 ShowMessageFace("",0,0,2,43)
 ShowMessage("You obtain \\ia[1119]!")
 EndEventProcessing()
 0()
EndIf()
If(1,11,0,44,0)
 ChangeInventoryArmor(1122,0,0,1,false)
 ShowMessageFace("",0,0,2,44)
 ShowMessage("You obtain \\ia[1122]!")
 EndEventProcessing()
 0()
EndIf()
If(1,11,0,45,0)
 ChangeInventoryArmor(1125,0,0,1,false)
 ShowMessageFace("",0,0,2,45)
 ShowMessage("You obtain \\ia[1125]!")
 EndEventProcessing()
 0()
EndIf()
If(1,11,0,46,0)
 ChangeInventoryArmor(1129,0,0,1,false)
 ShowMessageFace("",0,0,2,46)
 ShowMessage("You obtain \\ia[1129]!")
 EndEventProcessing()
 0()
EndIf()
If(1,11,0,47,0)
 ChangeInventoryArmor(1133,0,0,1,false)
 ShowMessageFace("",0,0,2,47)
 ShowMessage("You obtain \\ia[1133]!")
 EndEventProcessing()
 0()
EndIf()
If(1,11,0,48,0)
 ChangeInventoryArmor(1136,0,0,1,false)
 ShowMessageFace("",0,0,2,48)
 ShowMessage("You obtain \\ia[1136]!")
 EndEventProcessing()
 0()
EndIf()
If(1,11,0,49,0)
 ChangeInventoryArmor(1140,0,0,1,false)
 ShowMessageFace("",0,0,2,49)
 ShowMessage("You obtain \\ia[1140]!")
 EndEventProcessing()
 0()
EndIf()
If(1,11,0,50,0)
 ChangeInventoryArmor(1156,0,0,1,false)
 ShowMessageFace("",0,0,2,50)
 ShowMessage("You obtain \\ia[1156]!")
 EndEventProcessing()
 0()
EndIf()
If(1,11,0,51,0)
 ChangeInventoryArmor(1159,0,0,1,false)
 ShowMessageFace("",0,0,2,51)
 ShowMessage("You obtain \\ia[1159]!")
 EndEventProcessing()
 0()
EndIf()
If(1,11,0,52,0)
 ChangeInventoryArmor(1166,0,0,1,false)
 ShowMessageFace("",0,0,2,52)
 ShowMessage("You obtain \\ia[1166]!")
 EndEventProcessing()
 0()
EndIf()
If(1,11,0,53,0)
 ChangeInventoryArmor(1170,0,0,1,false)
 ShowMessageFace("",0,0,2,53)
 ShowMessage("You obtain \\ia[1170]!")
 EndEventProcessing()
 0()
EndIf()
If(1,11,0,54,0)
 ChangeInventoryArmor(1172,0,0,1,false)
 ShowMessageFace("",0,0,2,54)
 ShowMessage("You obtain \\ia[1172]!")
 EndEventProcessing()
 0()
EndIf()
If(1,11,0,55,0)
 ChangeInventoryArmor(1173,0,0,1,false)
 ShowMessageFace("",0,0,2,55)
 ShowMessage("You obtain \\ia[1173]!")
 EndEventProcessing()
 0()
EndIf()
If(1,11,0,56,0)
 ChangeInventoryArmor(1179,0,0,1,false)
 ShowMessageFace("",0,0,2,56)
 ShowMessage("You obtain \\ia[1179]!")
 EndEventProcessing()
 0()
EndIf()
If(1,11,0,57,0)
 ChangeInventoryArmor(1182,0,0,1,false)
 ShowMessageFace("",0,0,2,57)
 ShowMessage("You obtain \\ia[1182]!")
 EndEventProcessing()
 0()
EndIf()
If(1,11,0,58,0)
 ChangeInventoryArmor(1184,0,0,1,false)
 ShowMessageFace("",0,0,2,58)
 ShowMessage("You obtain \\ia[1184]!")
 EndEventProcessing()
 0()
EndIf()
If(1,11,0,59,0)
 ChangeInventoryArmor(1185,0,0,1,false)
 ShowMessageFace("",0,0,2,59)
 ShowMessage("You obtain \\ia[1185]!")
 EndEventProcessing()
 0()
EndIf()
If(1,11,0,60,0)
 ChangeInventoryArmor(1188,0,0,1,false)
 ShowMessageFace("",0,0,2,60)
 ShowMessage("You obtain \\ia[1188]!")
 EndEventProcessing()
 0()
EndIf()
If(1,11,0,61,0)
 ChangeInventoryArmor(1195,0,0,1,false)
 ShowMessageFace("",0,0,2,61)
 ShowMessage("You obtain \\ia[1195]!")
 EndEventProcessing()
 0()
EndIf()
If(1,11,0,62,0)
 ChangeInventoryArmor(1198,0,0,1,false)
 ShowMessageFace("",0,0,2,62)
 ShowMessage("You obtain \\ia[1198]!")
 EndEventProcessing()
 0()
EndIf()
If(1,11,0,63,0)
 ChangeInventoryArmor(1238,0,0,1,false)
 ShowMessageFace("",0,0,2,63)
 ShowMessage("You obtain \\ia[1238]!")
 EndEventProcessing()
 0()
EndIf()
If(1,11,0,64,0)
 ChangeInventoryArmor(1241,0,0,1,false)
 ShowMessageFace("",0,0,2,64)
 ShowMessage("You obtain \\ia[1241]!")
 EndEventProcessing()
 0()
EndIf()
If(1,11,0,65,0)
 ChangeInventoryArmor(1245,0,0,1,false)
 ShowMessageFace("",0,0,2,65)
 ShowMessage("You obtain \\ia[1245]!")
 EndEventProcessing()
 0()
EndIf()
If(1,11,0,66,0)
 ChangeInventoryArmor(1248,0,0,1,false)
 ShowMessageFace("",0,0,2,66)
 ShowMessage("You obtain \\ia[1248]!")
 EndEventProcessing()
 0()
EndIf()
If(1,11,0,67,0)
 ChangeInventoryArmor(1251,0,0,1,false)
 ShowMessageFace("",0,0,2,67)
 ShowMessage("You obtain \\ia[1251]!")
 EndEventProcessing()
 0()
EndIf()
If(1,11,0,68,0)
 ChangeInventoryArmor(1254,0,0,1,false)
 ShowMessageFace("",0,0,2,68)
 ShowMessage("You obtain \\ia[1254]!")
 EndEventProcessing()
 0()
EndIf()
If(1,11,0,69,0)
 ChangeInventoryArmor(1257,0,0,1,false)
 ShowMessageFace("",0,0,2,69)
 ShowMessage("You obtain \\ia[1257]!")
 EndEventProcessing()
 0()
EndIf()
If(1,11,0,70,0)
 ChangeInventoryArmor(1260,0,0,1,false)
 ShowMessageFace("",0,0,2,70)
 ShowMessage("You obtain \\ia[1260]!")
 EndEventProcessing()
 0()
EndIf()
If(1,11,0,71,0)
 ChangeInventoryArmor(1263,0,0,1,false)
 ShowMessageFace("",0,0,2,71)
 ShowMessage("You obtain \\ia[1263]!")
 EndEventProcessing()
 0()
EndIf()
If(1,11,0,72,0)
 ChangeInventoryArmor(1266,0,0,1,false)
 ShowMessageFace("",0,0,2,72)
 ShowMessage("You obtain \\ia[1266]!")
 EndEventProcessing()
 0()
EndIf()
If(1,11,0,73,0)
 ChangeInventoryArmor(1269,0,0,1,false)
 ShowMessageFace("",0,0,2,73)
 ShowMessage("You obtain \\ia[1269]!")
 EndEventProcessing()
 0()
EndIf()
If(1,11,0,74,0)
 ChangeInventoryArmor(1272,0,0,1,false)
 ShowMessageFace("",0,0,2,74)
 ShowMessage("You obtain \\ia[1272]!")
 EndEventProcessing()
 0()
EndIf()
If(1,11,0,75,0)
 ChangeInventoryArmor(1275,0,0,1,false)
 ShowMessageFace("",0,0,2,75)
 ShowMessage("You obtain \\ia[1275]!")
 EndEventProcessing()
 0()
EndIf()
If(1,11,0,76,0)
 ChangeInventoryArmor(1278,0,0,1,false)
 ShowMessageFace("",0,0,2,76)
 ShowMessage("You obtain \\ia[1278]!")
 EndEventProcessing()
 0()
EndIf()
If(1,11,0,77,0)
 ChangeInventoryArmor(1281,0,0,1,false)
 ShowMessageFace("",0,0,2,77)
 ShowMessage("You obtain \\ia[1281]!")
 EndEventProcessing()
 0()
EndIf()
If(1,11,0,78,0)
 ChangeInventoryArmor(1410,0,0,1,false)
 ShowMessageFace("",0,0,2,78)
 ShowMessage("You obtain \\ia[1410]!")
 EndEventProcessing()
 0()
EndIf()
If(1,11,0,79,0)
 ChangeInventoryArmor(1414,0,0,1,false)
 ShowMessageFace("",0,0,2,79)
 ShowMessage("You obtain \\ia[1414]!")
 EndEventProcessing()
 0()
EndIf()
If(1,11,0,80,0)
 ChangeInventoryArmor(1417,0,0,1,false)
 ShowMessageFace("",0,0,2,80)
 ShowMessage("You obtain \\ia[1417]!")
 EndEventProcessing()
 0()
EndIf()
If(1,11,0,81,0)
 ChangeInventoryArmor(1420,0,0,1,false)
 ShowMessageFace("",0,0,2,81)
 ShowMessage("You obtain \\ia[1420]!")
 EndEventProcessing()
 0()
EndIf()
If(1,11,0,82,0)
 ChangeInventoryArmor(1423,0,0,1,false)
 ShowMessageFace("",0,0,2,82)
 ShowMessage("You obtain \\ia[1423]!")
 EndEventProcessing()
 0()
EndIf()
If(1,11,0,83,0)
 ChangeInventoryArmor(1426,0,0,1,false)
 ShowMessageFace("",0,0,2,83)
 ShowMessage("You obtain \\ia[1426]!")
 EndEventProcessing()
 0()
EndIf()
If(1,11,0,84,0)
 ChangeInventoryArmor(1429,0,0,1,false)
 ShowMessageFace("",0,0,2,84)
 ShowMessage("You obtain \\ia[1429]!")
 EndEventProcessing()
 0()
EndIf()
If(1,11,0,85,0)
 ChangeInventoryArmor(1432,0,0,1,false)
 ShowMessageFace("",0,0,2,85)
 ShowMessage("You obtain \\ia[1432]!")
 EndEventProcessing()
 0()
EndIf()
If(1,11,0,86,0)
 ChangeInventoryArmor(1435,0,0,1,false)
 ShowMessageFace("",0,0,2,86)
 ShowMessage("You obtain \\ia[1435]!")
 EndEventProcessing()
 0()
EndIf()
If(1,11,0,87,0)
 ChangeInventoryArmor(1438,0,0,1,false)
 ShowMessageFace("",0,0,2,87)
 ShowMessage("You obtain \\ia[1438]!")
 EndEventProcessing()
 0()
EndIf()
If(1,11,0,88,0)
 ChangeInventoryArmor(1441,0,0,1,false)
 ShowMessageFace("",0,0,2,88)
 ShowMessage("You obtain \\ia[1441]!")
 EndEventProcessing()
 0()
EndIf()
If(1,11,0,89,0)
 ChangeInventoryArmor(1444,0,0,1,false)
 ShowMessageFace("",0,0,2,89)
 ShowMessage("You obtain \\ia[1444]!")
 EndEventProcessing()
 0()
EndIf()
If(1,11,0,90,0)
 ChangeInventoryArmor(1447,0,0,1,false)
 ShowMessageFace("",0,0,2,90)
 ShowMessage("You obtain \\ia[1447]!")
 EndEventProcessing()
 0()
EndIf()
If(1,11,0,91,0)
 ChangeInventoryArmor(1450,0,0,1,false)
 ShowMessageFace("",0,0,2,91)
 ShowMessage("You obtain \\ia[1450]!")
 EndEventProcessing()
 0()
EndIf()
If(1,11,0,92,0)
 ChangeInventoryArmor(1453,0,0,1,false)
 ShowMessageFace("",0,0,2,92)
 ShowMessage("You obtain \\ia[1453]!")
 EndEventProcessing()
 0()
EndIf()
If(1,11,0,93,0)
 ChangeInventoryArmor(1456,0,0,1,false)
 ShowMessageFace("",0,0,2,93)
 ShowMessage("You obtain \\ia[1456]!")
 EndEventProcessing()
 0()
EndIf()
If(1,11,0,94,0)
 ChangeInventoryArmor(1459,0,0,1,false)
 ShowMessageFace("",0,0,2,94)
 ShowMessage("You obtain \\ia[1459]!")
 EndEventProcessing()
 0()
EndIf()
If(1,11,0,95,0)
 ChangeInventoryArmor(1462,0,0,1,false)
 ShowMessageFace("",0,0,2,95)
 ShowMessage("You obtain \\ia[1462]!")
 EndEventProcessing()
 0()
EndIf()
If(1,11,0,96,0)
 ChangeInventoryArmor(1465,0,0,1,false)
 ShowMessageFace("",0,0,2,96)
 ShowMessage("You obtain \\ia[1465]!")
 EndEventProcessing()
 0()
EndIf()
If(1,11,0,97,0)
 ChangeInventoryArmor(1468,0,0,1,false)
 ShowMessageFace("",0,0,2,97)
 ShowMessage("You obtain \\ia[1468]!")
 EndEventProcessing()
 0()
EndIf()
If(1,11,0,98,0)
 ChangeInventoryArmor(1471,0,0,1,false)
 ShowMessageFace("",0,0,2,98)
 ShowMessage("You obtain \\ia[1471]!")
 EndEventProcessing()
 0()
EndIf()
If(1,11,0,99,0)
 ChangeInventoryArmor(1474,0,0,1,false)
 ShowMessageFace("",0,0,2,99)
 ShowMessage("You obtain \\ia[1474]!")
 EndEventProcessing()
 0()
EndIf()
If(1,11,0,100,0)
 ChangeInventoryArmor(1477,0,0,1,false)
 ShowMessageFace("",0,0,2,100)
 ShowMessage("You obtain \\ia[1477]!")
 EndEventProcessing()
 0()
EndIf()
If(1,11,0,101,0)
 ChangeInventoryArmor(1480,0,0,1,false)
 ShowMessageFace("",0,0,2,101)
 ShowMessage("You obtain \\ia[1480]!")
 EndEventProcessing()
 0()
EndIf()
If(1,11,0,102,0)
 ChangeInventoryArmor(1483,0,0,1,false)
 ShowMessageFace("",0,0,2,102)
 ShowMessage("You obtain \\ia[1483]!")
 EndEventProcessing()
 0()
EndIf()
If(1,11,0,103,0)
 ChangeInventoryArmor(1486,0,0,1,false)
 ShowMessageFace("",0,0,2,103)
 ShowMessage("You obtain \\ia[1483]!")
 EndEventProcessing()
 0()
EndIf()
If(1,11,0,104,0)
 ChangeInventoryArmor(1490,0,0,1,false)
 ShowMessageFace("",0,0,2,104)
 ShowMessage("You obtain \\ia[1490]!")
 EndEventProcessing()
 0()
EndIf()
If(1,11,0,105,0)
 ChangeInventoryArmor(1495,0,0,1,false)
 ShowMessageFace("",0,0,2,105)
 ShowMessage("You obtain \\ia[1495]!")
 EndEventProcessing()
 0()
EndIf()
If(1,11,0,106,0)
 ChangeInventoryArmor(1499,0,0,1,false)
 ShowMessageFace("",0,0,2,106)
 ShowMessage("You obtain \\ia[1499]!")
 EndEventProcessing()
 0()
EndIf()
If(1,11,0,107,0)
 ChangeInventoryArmor(1503,0,0,1,false)
 ShowMessageFace("",0,0,2,107)
 ShowMessage("You obtain \\ia[1503]!")
 EndEventProcessing()
 0()
EndIf()
If(1,11,0,108,0)
 ChangeInventoryArmor(1507,0,0,1,false)
 ShowMessageFace("",0,0,2,108)
 ShowMessage("You obtain \\ia[1507]!")
 EndEventProcessing()
 0()
EndIf()
If(1,11,0,109,0)
 ChangeInventoryArmor(1511,0,0,1,false)
 ShowMessageFace("",0,0,2,109)
 ShowMessage("You obtain \\ia[1511]!")
 EndEventProcessing()
 0()
EndIf()
If(1,11,0,110,0)
 ChangeInventoryArmor(1515,0,0,1,false)
 ShowMessageFace("",0,0,2,110)
 ShowMessage("You obtain \\ia[1515]!")
 EndEventProcessing()
 0()
EndIf()
If(1,11,0,111,0)
 ChangeInventoryArmor(1518,0,0,1,false)
 ShowMessageFace("",0,0,2,111)
 ShowMessage("You obtain \\ia[1518]!")
 EndEventProcessing()
 0()
EndIf()
If(1,11,0,112,0)
 ChangeInventoryArmor(1522,0,0,1,false)
 ShowMessageFace("",0,0,2,112)
 ShowMessage("You obtain \\ia[1522]!")
 EndEventProcessing()
 0()
EndIf()
If(1,11,0,113,0)
 ChangeInventoryArmor(1527,0,0,1,false)
 ShowMessageFace("",0,0,2,113)
 ShowMessage("You obtain \\ia[1527]!")
 EndEventProcessing()
 0()
EndIf()
If(1,11,0,114,0)
 ChangeInventoryArmor(1531,0,0,1,false)
 ShowMessageFace("",0,0,2,114)
 ShowMessage("You obtain \\ia[1531]!")
 EndEventProcessing()
 0()
EndIf()
If(1,11,0,115,0)
 ChangeInventoryArmor(1534,0,0,1,false)
 ShowMessageFace("",0,0,2,115)
 ShowMessage("You obtain \\ia[1534]!")
 EndEventProcessing()
 0()
EndIf()
If(1,11,0,116,0)
 ChangeInventoryArmor(1545,0,0,1,false)
 ShowMessageFace("",0,0,2,116)
 ShowMessage("You obtain \\ia[1545]!")
 EndEventProcessing()
 0()
EndIf()
If(1,11,0,117,0)
 ChangeInventoryArmor(1628,0,0,1,false)
 ShowMessageFace("",0,0,2,117)
 ShowMessage("You obtain \\ia[1628]!")
 EndEventProcessing()
 0()
EndIf()
If(1,11,0,118,0)
 ChangeInventoryArmor(1629,0,0,1,false)
 ShowMessageFace("",0,0,2,118)
 ShowMessage("You obtain \\ia[1629]!")
 EndEventProcessing()
 0()
EndIf()
If(1,11,0,119,0)
 ChangeInventoryArmor(1630,0,0,1,false)
 ShowMessageFace("",0,0,2,119)
 ShowMessage("You obtain \\ia[1630]!")
 EndEventProcessing()
 0()
EndIf()
If(1,11,0,120,0)
 ChangeInventoryArmor(1631,0,0,1,false)
 ShowMessageFace("",0,0,2,120)
 ShowMessage("You obtain \\ia[1631]!")
 EndEventProcessing()
 0()
EndIf()
If(1,11,0,121,0)
 ChangeInventoryArmor(1632,0,0,1,false)
 ShowMessageFace("",0,0,2,121)
 ShowMessage("You obtain \\ia[1632]!")
 EndEventProcessing()
 0()
EndIf()
If(1,11,0,122,0)
 ChangeInventoryArmor(1633,0,0,1,false)
 ShowMessageFace("",0,0,2,122)
 ShowMessage("You obtain \\ia[1633]!")
 EndEventProcessing()
 0()
EndIf()
If(1,11,0,123,0)
 ChangeInventoryArmor(1634,0,0,1,false)
 ShowMessageFace("",0,0,2,123)
 ShowMessage("You obtain \\ia[1634]!")
 EndEventProcessing()
 0()
EndIf()
If(1,11,0,124,0)
 ChangeInventoryArmor(1635,0,0,1,false)
 ShowMessageFace("",0,0,2,124)
 ShowMessage("You obtain \\ia[1635]!")
 EndEventProcessing()
 0()
EndIf()
If(1,11,0,125,0)
 ChangeInventoryArmor(1636,0,0,1,false)
 ShowMessageFace("",0,0,2,125)
 ShowMessage("You obtain \\ia[1636]!")
 EndEventProcessing()
 0()
EndIf()
If(1,11,0,126,0)
 ChangeInventoryArmor(1637,0,0,1,false)
 ShowMessageFace("",0,0,2,126)
 ShowMessage("You obtain \\ia[1637]!")
 EndEventProcessing()
 0()
EndIf()
If(1,11,0,127,0)
 ChangeInventoryArmor(1638,0,0,1,false)
 ShowMessageFace("",0,0,2,127)
 ShowMessage("You obtain \\ia[1638]!")
 EndEventProcessing()
 0()
EndIf()
If(1,11,0,128,0)
 ChangeInventoryArmor(1639,0,0,1,false)
 ShowMessageFace("",0,0,2,128)
 ShowMessage("You obtain \\ia[1639]!")
 EndEventProcessing()
 0()
EndIf()
If(1,11,0,129,0)
 ChangeInventoryArmor(1640,0,0,1,false)
 ShowMessageFace("",0,0,2,129)
 ShowMessage("You obtain \\ia[1640]!")
 EndEventProcessing()
 0()
EndIf()
If(1,11,0,130,0)
 ChangeInventoryArmor(1641,0,0,1,false)
 ShowMessageFace("",0,0,2,130)
 ShowMessage("You obtain \\ia[1641]!")
 EndEventProcessing()
 0()
EndIf()
If(1,11,0,131,0)
 ChangeInventoryArmor(1642,0,0,1,false)
 ShowMessageFace("",0,0,2,131)
 ShowMessage("You obtain \\ia[1642]!")
 EndEventProcessing()
 0()
EndIf()
If(1,11,0,132,0)
 ChangeInventoryArmor(1643,0,0,1,false)
 ShowMessageFace("",0,0,2,132)
 ShowMessage("You obtain \\ia[1643]!")
 EndEventProcessing()
 0()
EndIf()
If(1,11,0,133,0)
 ChangeInventoryArmor(1644,0,0,1,false)
 ShowMessageFace("",0,0,2,133)
 ShowMessage("You obtain \\ia[1644]!")
 EndEventProcessing()
 0()
EndIf()
If(1,11,0,134,0)
 ChangeInventoryArmor(1645,0,0,1,false)
 ShowMessageFace("",0,0,2,134)
 ShowMessage("You obtain \\ia[1645]!")
 EndEventProcessing()
 0()
EndIf()
If(1,11,0,135,0)
 ChangeInventoryArmor(1646,0,0,1,false)
 ShowMessageFace("",0,0,2,135)
 ShowMessage("You obtain \\ia[1646]!")
 EndEventProcessing()
 0()
EndIf()
If(1,11,0,136,0)
 ChangeInventoryArmor(1647,0,0,1,false)
 ShowMessageFace("",0,0,2,136)
 ShowMessage("You obtain \\ia[1647]!")
 EndEventProcessing()
 0()
EndIf()
If(1,11,0,137,0)
 ChangeInventoryArmor(1648,0,0,1,false)
 ShowMessageFace("",0,0,2,137)
 ShowMessage("You obtain \\ia[1648]!")
 EndEventProcessing()
 0()
EndIf()
If(1,11,0,138,0)
 ChangeInventoryArmor(1649,0,0,1,false)
 ShowMessageFace("",0,0,2,138)
 ShowMessage("You obtain \\ia[1649]!")
 EndEventProcessing()
 0()
EndIf()
If(1,11,0,139,0)
 ChangeInventoryArmor(1650,0,0,1,false)
 ShowMessageFace("",0,0,2,139)
 ShowMessage("You obtain \\ia[1650]!")
 EndEventProcessing()
 0()
EndIf()
If(1,11,0,140,0)
 ChangeInventoryArmor(1651,0,0,1,false)
 ShowMessageFace("",0,0,2,140)
 ShowMessage("You obtain \\ia[1651]!")
 EndEventProcessing()
 0()
EndIf()
If(1,11,0,141,0)
 ChangeInventoryArmor(1652,0,0,1,false)
 ShowMessageFace("",0,0,2,141)
 ShowMessage("You obtain \\ia[1652]!")
 EndEventProcessing()
 0()
EndIf()
If(1,11,0,142,0)
 ChangeInventoryArmor(1653,0,0,1,false)
 ShowMessageFace("",0,0,2,142)
 ShowMessage("You obtain \\ia[1653]!")
 EndEventProcessing()
 0()
EndIf()
If(1,11,0,143,0)
 ChangeInventoryArmor(1654,0,0,1,false)
 ShowMessageFace("",0,0,2,143)
 ShowMessage("You obtain \\ia[1654]!")
 EndEventProcessing()
 0()
EndIf()
If(1,11,0,144,0)
 ChangeInventoryArmor(1655,0,0,1,false)
 ShowMessageFace("",0,0,2,144)
 ShowMessage("You obtain \\ia[1655]!")
 EndEventProcessing()
 0()
EndIf()
If(1,11,0,145,0)
 ChangeInventoryArmor(1656,0,0,1,false)
 ShowMessageFace("",0,0,2,145)
 ShowMessage("You obtain \\ia[1656]!")
 EndEventProcessing()
 0()
EndIf()
If(1,11,0,146,0)
 ChangeInventoryArmor(1657,0,0,1,false)
 ShowMessageFace("",0,0,2,146)
 ShowMessage("You obtain \\ia[1657]!")
 EndEventProcessing()
 0()
EndIf()
If(1,11,0,147,0)
 ChangeInventoryArmor(1658,0,0,1,false)
 ShowMessageFace("",0,0,2,147)
 ShowMessage("You obtain \\ia[1658]!")
 EndEventProcessing()
 0()
EndIf()
If(1,11,0,148,0)
 ChangeInventoryArmor(1659,0,0,1,false)
 ShowMessageFace("",0,0,2,148)
 ShowMessage("You obtain \\ia[1659]!")
 EndEventProcessing()
 0()
EndIf()
If(1,11,0,149,0)
 ChangeInventoryArmor(1660,0,0,1,false)
 ShowMessageFace("",0,0,2,149)
 ShowMessage("You obtain \\ia[1660]!")
 EndEventProcessing()
 0()
EndIf()
If(1,11,0,150,0)
 ChangeInventoryArmor(1661,0,0,1,false)
 ShowMessageFace("",0,0,2,150)
 ShowMessage("You obtain \\ia[1661]!")
 EndEventProcessing()
 0()
EndIf()
If(1,11,0,151,0)
 ChangeInventoryArmor(1662,0,0,1,false)
 ShowMessageFace("",0,0,2,151)
 ShowMessage("You obtain \\ia[1662]!")
 EndEventProcessing()
 0()
EndIf()
If(1,11,0,152,0)
 ChangeInventoryArmor(1663,0,0,1,false)
 ShowMessageFace("",0,0,2,152)
 ShowMessage("You obtain \\ia[1663]!")
 EndEventProcessing()
 0()
EndIf()
If(1,11,0,153,0)
 ChangeInventoryArmor(1664,0,0,1,false)
 ShowMessageFace("",0,0,2,153)
 ShowMessage("You obtain \\ia[1664]!")
 EndEventProcessing()
 0()
EndIf()
If(1,11,0,154,0)
 ChangeInventoryArmor(1665,0,0,1,false)
 ShowMessageFace("",0,0,2,154)
 ShowMessage("You obtain \\ia[1665]!")
 EndEventProcessing()
 0()
EndIf()
If(1,11,0,155,0)
 ChangeInventoryArmor(1666,0,0,1,false)
 ShowMessageFace("",0,0,2,155)
 ShowMessage("You obtain \\ia[1666]!")
 EndEventProcessing()
 0()
EndIf()
If(1,11,0,156,0)
 ChangeInventoryArmor(1667,0,0,1,false)
 ShowMessageFace("",0,0,2,156)
 ShowMessage("You obtain \\ia[1667]!")
 EndEventProcessing()
 0()
EndIf()
If(1,11,0,157,0)
 ChangeInventoryArmor(1668,0,0,1,false)
 ShowMessageFace("",0,0,2,157)
 ShowMessage("You obtain \\ia[1668]!")
 EndEventProcessing()
 0()
EndIf()
If(1,11,0,158,0)
 ChangeInventoryArmor(1669,0,0,1,false)
 ShowMessageFace("",0,0,2,158)
 ShowMessage("You obtain \\ia[1669]!")
 EndEventProcessing()
 0()
EndIf()
If(1,11,0,159,0)
 ChangeInventoryArmor(1670,0,0,1,false)
 ShowMessageFace("",0,0,2,159)
 ShowMessage("You obtain \\ia[1670]!")
 EndEventProcessing()
 0()
EndIf()
If(1,11,0,160,0)
 ChangeInventoryArmor(1671,0,0,1,false)
 ShowMessageFace("",0,0,2,160)
 ShowMessage("You obtain \\ia[1671]!")
 EndEventProcessing()
 0()
EndIf()
If(1,11,0,161,0)
 ChangeInventoryArmor(1672,0,0,1,false)
 ShowMessageFace("",0,0,2,161)
 ShowMessage("You obtain \\ia[1672]!")
 EndEventProcessing()
 0()
EndIf()
If(1,11,0,162,0)
 ChangeInventoryArmor(1673,0,0,1,false)
 ShowMessageFace("",0,0,2,162)
 ShowMessage("You obtain \\ia[1673]!")
 EndEventProcessing()
 0()
EndIf()
If(1,11,0,163,0)
 ChangeInventoryArmor(1674,0,0,1,false)
 ShowMessageFace("",0,0,2,163)
 ShowMessage("You obtain \\ia[1674]!")
 EndEventProcessing()
 0()
EndIf()
If(1,11,0,164,0)
 ChangeInventoryArmor(1675,0,0,1,false)
 ShowMessageFace("",0,0,2,164)
 ShowMessage("You obtain \\ia[1675]!")
 EndEventProcessing()
 0()
EndIf()
If(1,11,0,165,0)
 ChangeInventoryArmor(1676,0,0,1,false)
 ShowMessageFace("",0,0,2,165)
 ShowMessage("You obtain \\ia[1676]!")
 EndEventProcessing()
 0()
EndIf()
If(1,11,0,166,0)
 ChangeInventoryArmor(1677,0,0,1,false)
 ShowMessageFace("",0,0,2,166)
 ShowMessage("You obtain \\ia[1677]!")
 EndEventProcessing()
 0()
EndIf()
If(1,11,0,167,0)
 ChangeInventoryArmor(1678,0,0,1,false)
 ShowMessageFace("",0,0,2,167)
 ShowMessage("You obtain \\ia[1678]!")
 EndEventProcessing()
 0()
EndIf()
If(1,11,0,168,0)
 ChangeInventoryArmor(1679,0,0,1,false)
 ShowMessageFace("",0,0,2,168)
 ShowMessage("You obtain \\ia[1679]!")
 EndEventProcessing()
 0()
EndIf()
If(1,11,0,169,0)
 ChangeInventoryArmor(1680,0,0,1,false)
 ShowMessageFace("",0,0,2,169)
 ShowMessage("You obtain \\ia[1680]!")
 EndEventProcessing()
 0()
EndIf()
If(1,11,0,170,0)
 ChangeInventoryArmor(1681,0,0,1,false)
 ShowMessageFace("",0,0,2,170)
 ShowMessage("You obtain \\ia[1681]!")
 EndEventProcessing()
 0()
EndIf()
If(1,11,0,171,0)
 ChangeInventoryArmor(1682,0,0,1,false)
 ShowMessageFace("",0,0,2,171)
 ShowMessage("You obtain \\ia[1682]!")
 EndEventProcessing()
 0()
EndIf()
If(1,11,0,172,0)
 ChangeInventoryArmor(1683,0,0,1,false)
 ShowMessageFace("",0,0,2,172)
 ShowMessage("You obtain \\ia[1683]!")
 EndEventProcessing()
 0()
EndIf()
If(1,11,0,173,0)
 ChangeInventoryArmor(1689,0,0,1,false)
 ShowMessageFace("",0,0,2,173)
 ShowMessage("You obtain \\ia[1689]!")
 EndEventProcessing()
 0()
EndIf()
If(1,11,0,174,0)
 ChangeInventoryArmor(1692,0,0,1,false)
 ShowMessageFace("",0,0,2,174)
 ShowMessage("You obtain \\ia[1692]!")
 EndEventProcessing()
 0()
EndIf()
If(1,11,0,175,0)
 ChangeInventoryArmor(1695,0,0,1,false)
 ShowMessageFace("",0,0,2,175)
 ShowMessage("You obtain \\ia[1695]!")
 EndEventProcessing()
 0()
EndIf()
If(1,11,0,176,0)
 ChangeInventoryArmor(1698,0,0,1,false)
 ShowMessageFace("",0,0,2,176)
 ShowMessage("You obtain \\ia[1698]!")
 EndEventProcessing()
 0()
EndIf()
If(1,11,0,177,0)
 ChangeInventoryArmor(1701,0,0,1,false)
 ShowMessageFace("",0,0,2,177)
 ShowMessage("You obtain \\ia[1701]!")
 EndEventProcessing()
 0()
EndIf()
If(1,11,0,178,0)
 ChangeInventoryArmor(1704,0,0,1,false)
 ShowMessageFace("",0,0,2,178)
 ShowMessage("You obtain \\ia[1704]!")
 EndEventProcessing()
 0()
EndIf()
If(1,11,0,179,0)
 ChangeInventoryArmor(1738,0,0,1,false)
 ShowMessageFace("",0,0,2,179)
 ShowMessage("You obtain \\ia[1738]!")
 EndEventProcessing()
 0()
EndIf()
If(1,11,0,180,0)
 ChangeInventoryArmor(1739,0,0,1,false)
 ShowMessageFace("",0,0,2,180)
 ShowMessage("You obtain \\ia[1739]!")
 EndEventProcessing()
 0()
EndIf()
0()
