// EVENT 0028
Name "Skill:Major Provocation"

If(0,41,0)
 ShowMessageFace("",0,0,2,1)
 ShowMessage("You didn't recieve any response!")
 EndEventProcessing()
 0()
EndIf()
355("b = NWConst::Var::ENEMY_REL_BASE")
655("e = b + v(NWConst::Var::ACTION_TARGET)")
655("$game_variables[e] += -40")
250(bytes(0x04,0x08,0x6f,0x3a,0x0c,0x52,0x50,0x47,0x3a,0x3a,0x53,0x45,0x08,0x3a,0x0a,0x40,0x6e,0x61,0x6d,0x65,0x49,0x22,0x0a,0x44,0x6f,0x77,0x6e,0x33,0x06,0x3a,0x06,0x45,0x54,0x3a,0x0b,0x40,0x70,0x69,0x74,0x63,0x68,0x69,0x69,0x3a,0x0c,0x40,0x76,0x6f,0x6c,0x75,0x6d,0x65,0x69,0x55))
ShowMessageFace("",0,0,2,2)
ShowMessage("Affinity has decreased by 40!")
0()
