// EVENT 0067
Name "Skill: Play 271-280"

ChangeVariable(11,11,0,2,1,5)
If(1,100,0,271,0)
 If(1,11,0,1,0)
  ShowMessageFace("scyllad_fc1",0,0,2,1)
  ShowMessage("【ミリアム】")
  ShowMessage("わさわさわさ～♪")
  ShowMessageFace("",0,0,2,2)
  ShowMessage("ミリアムは足をわさわさ動かしている……")
  EndEventProcessing()
  0()
 EndIf()
 If(1,11,0,2,0)
  ShowMessageFace("scyllad_fc1",0,0,2,3)
  ShowMessage("【ミリアム】")
  ShowMessage("えい、やー！")
  355("interrupt_skill(2776)")
  EndEventProcessing()
  0()
 EndIf()
 If(1,11,0,3,0)
  ShowMessageFace("scyllad_fc1",2,0,2,4)
  ShowMessage("【ミリアム】")
  ShowMessage("ぐっすん……")
  ShowMessageFace("",0,0,2,5)
  ShowMessage("ミリアムは嘘泣きをした！")
  ShowMessage("しかし、誰も聞いていない……")
  EndEventProcessing()
  0()
 EndIf()
 If(1,11,0,4,0)
  ShowMessageFace("scyllad_fc1",0,0,2,6)
  ShowMessage("【ミリアム】")
  ShowMessage("これ、捕まえました……")
  ShowMessageFace("",0,0,2,7)
  ShowMessage("ミリアムからの差し入れだ！")
  250(bytes(0x04,0x08,0x6f,0x3a,0x0c,0x52,0x50,0x47,0x3a,0x3a,0x53,0x45,0x08,0x3a,0x0a,0x40,0x6e,0x61,0x6d,0x65,0x49,0x22,0x0a,0x49,0x74,0x65,0x6d,0x31,0x06,0x3a,0x06,0x45,0x54,0x3a,0x0b,0x40,0x70,0x69,0x74,0x63,0x68,0x69,0x69,0x3a,0x0c,0x40,0x76,0x6f,0x6c,0x75,0x6d,0x65,0x69,0x55))
  ChangeInventory_Item(448,0,0,1)
  ShowMessageFace("",0,0,2,8)
  ShowMessage("「カブトムシ」を手に入れた！")
  EndEventProcessing()
  0()
 EndIf()
 If(1,11,0,5,0)
  ShowMessageFace("scyllad_fc1",0,0,2,9)
  ShowMessage("【ミリアム】")
  ShowMessage("うふふふふふふふふふふふっ……")
  355("interrupt_skill(3295)")
  EndEventProcessing()
  0()
 EndIf()
 0()
EndIf()
If(1,100,0,272,0)
 If(1,11,0,1,0)
  ShowMessageFace("seiren_fc1",0,0,2,10)
  ShowMessage("【レーネ】")
  ShowMessage("とろける愛の歌……♪")
  355("interrupt_skill(2079)")
  EndEventProcessing()
  0()
 EndIf()
 If(1,11,0,2,0)
  ShowMessageFace("seiren_fc1",0,0,2,11)
  ShowMessage("【レーネ】")
  ShowMessage("まったく、みんな歌を分かっていないわ……")
  ShowMessageFace("",0,0,2,12)
  ShowMessage("レーネは一人で愚痴を言っている……")
  EndEventProcessing()
  0()
 EndIf()
 If(1,11,0,3,0)
  ShowMessageFace("seiren_fc1",0,0,2,13)
  ShowMessage("【レーネ】")
  ShowMessage("しばらく黙るわ……")
  313(0,272,0,9)
  ShowMessageFace("",0,0,2,14)
  ShowMessage("レーネは沈黙してしまった……")
  EndEventProcessing()
  0()
 EndIf()
 If(1,11,0,4,0)
  ShowMessageFace("seiren_fc1",0,0,2,15)
  ShowMessage("【レーネ】")
  ShowMessage("ふんふんふーん♪")
  ShowMessageFace("",0,0,2,16)
  ShowMessage("レーネは鼻歌を歌っている……")
  EndEventProcessing()
  0()
 EndIf()
 If(1,11,0,5,0)
  ShowMessageFace("seiren_fc1",0,0,2,17)
  ShowMessage("【レーネ】")
  ShowMessage("心を奪う誘惑の歌……♪")
  355("interrupt_skill(2104)")
  EndEventProcessing()
  0()
 EndIf()
 0()
EndIf()
If(1,100,0,273,0)
 If(1,11,0,1,0)
  ShowMessageFace("sango_fc1",0,0,2,18)
  ShowMessage("【サンゴ】")
  ShowMessage("……………………")
  ShowMessageFace("",0,0,2,19)
  ShowMessage("サンゴは黙り込んでいる……")
  EndEventProcessing()
  0()
 EndIf()
 If(1,11,0,2,0)
  ShowMessageFace("sango_fc1",0,0,2,20)
  ShowMessage("【サンゴ】")
  ShowMessage("……………………")
  ShowMessageFace("",0,0,2,21)
  ShowMessage("サンゴはにっこり微笑んだ！")
  ShowMessage("……気がした。")
  EndEventProcessing()
  0()
 EndIf()
 If(1,11,0,3,0)
  ShowMessageFace("sango_fc1",0,0,2,22)
  ShowMessage("【サンゴ】")
  ShowMessage("…………………………")
  313(0,273,0,11)
  ShowMessageFace("",0,0,2,23)
  ShowMessage("サンゴは眠ってしまったようだ……")
  EndEventProcessing()
  0()
 EndIf()
 If(1,11,0,4,0)
  ShowMessageFace("sango_fc1",0,0,2,24)
  ShowMessage("【サンゴ】")
  ShowMessage("……………………")
  355("interrupt_skill(3086)")
  EndEventProcessing()
  0()
 EndIf()
 If(1,11,0,5,0)
  ShowMessageFace("sango_fc1",0,0,2,25)
  ShowMessage("【サンゴ】")
  ShowMessage("……………………")
  355("interrupt_skill(3089)")
  EndEventProcessing()
  0()
 EndIf()
 0()
EndIf()
If(1,100,0,274,0)
 If(1,11,0,1,0)
  ShowMessageFace("hitode_fc1",0,0,2,26)
  ShowMessage("【アスタ】")
  ShowMessage("おなかが減る年頃なのよ……")
  ShowMessage("……むしゃむしゃ。")
  ShowMessageFace("",0,0,2,27)
  ShowMessage("アスタは食料を盗み食いしている……")
  EndEventProcessing()
  0()
 EndIf()
 If(1,11,0,2,0)
  ShowMessageFace("hitode_fc1",0,0,2,28)
  ShowMessage("【アスタ】")
  ShowMessage("ヒトデダンスよ……♪")
  ShowMessageFace("",0,0,2,29)
  ShowMessage("アスタは陽気に歌って踊っている……")
  EndEventProcessing()
  0()
 EndIf()
 If(1,11,0,3,0)
  ShowMessageFace("hitode_fc1",0,0,2,30)
  ShowMessage("【アスタ】")
  ShowMessage("ごろごろごろ……")
  ShowMessageFace("",0,0,2,31)
  ShowMessage("アスタはごろごろ転がっている……")
  EndEventProcessing()
  0()
 EndIf()
 If(1,11,0,4,0)
  ShowMessageFace("hitode_fc1",0,0,2,32)
  ShowMessage("【アスタ】")
  ShowMessage("これ、食べなさい。")
  ShowMessageFace("",0,0,2,33)
  ShowMessage("アスタからの差し入れだ！")
  250(bytes(0x04,0x08,0x6f,0x3a,0x0c,0x52,0x50,0x47,0x3a,0x3a,0x53,0x45,0x08,0x3a,0x0a,0x40,0x6e,0x61,0x6d,0x65,0x49,0x22,0x0a,0x49,0x74,0x65,0x6d,0x31,0x06,0x3a,0x06,0x45,0x54,0x3a,0x0b,0x40,0x70,0x69,0x74,0x63,0x68,0x69,0x69,0x3a,0x0c,0x40,0x76,0x6f,0x6c,0x75,0x6d,0x65,0x69,0x55))
  ChangeInventory_Item(322,0,0,1)
  ShowMessageFace("",0,0,2,34)
  ShowMessage("「さかな」を手に入れた！")
  EndEventProcessing()
  0()
 EndIf()
 If(1,11,0,5,0)
  ShowMessageFace("hitode_fc1",0,0,2,35)
  ShowMessage("【アスタ】")
  ShowMessage("ヒトデの胃液よ……！")
  355("interrupt_skill(2645)")
  EndEventProcessing()
  0()
 EndIf()
 0()
EndIf()
If(1,100,0,275,0)
 If(1,11,0,1,0)
  ShowMessageFace("beelzebub_fc1",0,0,2,36)
  ShowMessage("【バーバレラ】")
  ShowMessage("腹が減ったわね……")
  ShowMessageFace("",0,0,2,37)
  ShowMessage("バーバレラは食料を盗み食いしている……")
  EndEventProcessing()
  0()
 EndIf()
 If(1,11,0,2,0)
  ShowMessageFace("beelzebub_fc1",2,0,2,38)
  ShowMessage("【バーバレラ】")
  ShowMessage("そう言えば、封印される前に飲みかけた牛乳が……")
  ShowMessage("……ううっ、なんなのこの臭い……！？")
  355("interrupt_skill(3304)")
  EndEventProcessing()
  0()
 EndIf()
 If(1,11,0,3,0)
  ShowMessageFace("beelzebub_fc1",0,0,2,39)
  ShowMessage("【バーバレラ】")
  ShowMessage("ほら、がんばりなさい。")
  ShowMessageFace("",0,0,2,40)
  ShowMessage("バーバレラはみんなを応援した！")
  ShowMessage("しかし誰も聞いていない……")
  EndEventProcessing()
  0()
 EndIf()
 If(1,11,0,4,0)
  ShowMessageFace("beelzebub_fc1",0,0,2,41)
  ShowMessage("【バーバレラ】")
  ShowMessage("これ、あげるわ……")
  ShowMessageFace("",0,0,2,42)
  ShowMessage("バーバレラからの差し入れだ！")
  250(bytes(0x04,0x08,0x6f,0x3a,0x0c,0x52,0x50,0x47,0x3a,0x3a,0x53,0x45,0x08,0x3a,0x0a,0x40,0x6e,0x61,0x6d,0x65,0x49,0x22,0x0a,0x49,0x74,0x65,0x6d,0x31,0x06,0x3a,0x06,0x45,0x54,0x3a,0x0b,0x40,0x70,0x69,0x74,0x63,0x68,0x69,0x69,0x3a,0x0c,0x40,0x76,0x6f,0x6c,0x75,0x6d,0x65,0x69,0x55))
  ChangeInventory_Item(340,0,0,1)
  ShowMessageFace("",0,0,2,43)
  ShowMessage("「たまご」を手に入れた！")
  EndEventProcessing()
  0()
 EndIf()
 If(1,11,0,5,0)
  ShowMessageFace("beelzebub_fc1",0,0,2,44)
  ShowMessage("【バーバレラ】")
  ShowMessage("吹っ飛びなさい……")
  355("interrupt_skill(2859)")
  EndEventProcessing()
  0()
 EndIf()
 0()
EndIf()
If(1,100,0,276,0)
 If(1,11,0,1,0)
  ShowMessageFace("beelzebub_fc2",0,0,2,45)
  ShowMessage("【ストリガ】")
  ShowMessage("少しだけ、失礼……むしゃむしゃ。")
  ShowMessageFace("",0,0,2,46)
  ShowMessage("ストリガは食料を盗み食いしている……")
  EndEventProcessing()
  0()
 EndIf()
 If(1,11,0,2,0)
  ShowMessageFace("beelzebub_fc2",0,0,2,47)
  ShowMessage("【ストリガ】")
  ShowMessage("たまには楽しみましょう……♪")
  ShowMessageFace("",0,0,2,48)
  ShowMessage("ストリガは陽気に歌って踊っている……")
  EndEventProcessing()
  0()
 EndIf()
 If(1,11,0,3,0)
  ShowMessageFace("beelzebub_fc2",0,0,2,49)
  ShowMessage("【ストリガ】")
  ShowMessage("禁じられた遊びですよ……")
  355("interrupt_skill(3295)")
  EndEventProcessing()
  0()
 EndIf()
 If(1,11,0,4,0)
  ShowMessageFace("beelzebub_fc2",0,0,2,50)
  ShowMessage("【ストリガ】")
  ShowMessage("これを差し上げましょう……")
  ShowMessageFace("",0,0,2,51)
  ShowMessage("ストリガからの差し入れだ！")
  250(bytes(0x04,0x08,0x6f,0x3a,0x0c,0x52,0x50,0x47,0x3a,0x3a,0x53,0x45,0x08,0x3a,0x0a,0x40,0x6e,0x61,0x6d,0x65,0x49,0x22,0x0a,0x49,0x74,0x65,0x6d,0x31,0x06,0x3a,0x06,0x45,0x54,0x3a,0x0b,0x40,0x70,0x69,0x74,0x63,0x68,0x69,0x69,0x3a,0x0c,0x40,0x76,0x6f,0x6c,0x75,0x6d,0x65,0x69,0x55))
  ChangeInventory_Item(341,0,0,1)
  ShowMessageFace("",0,0,2,52)
  ShowMessage("「チーズ」を手に入れた！")
  EndEventProcessing()
  0()
 EndIf()
 If(1,11,0,5,0)
  ShowMessageFace("beelzebub_fc2",0,0,2,53)
  ShowMessage("【ストリガ】")
  ShowMessage("うふふふっ……")
  355("interrupt_skill(2859)")
  EndEventProcessing()
  0()
 EndIf()
 0()
EndIf()
If(1,100,0,277,0)
 If(1,11,0,1,0)
  ShowMessageFace("beelzebub_fc3",0,0,2,54)
  ShowMessage("【メディア】")
  ShowMessage("お腹が減ったの……")
  ShowMessageFace("",0,0,2,55)
  ShowMessage("メディアは食料を盗み食いしている……")
  EndEventProcessing()
  0()
 EndIf()
 If(1,11,0,2,0)
  ShowMessageFace("beelzebub_fc3",1,0,2,56)
  ShowMessage("【メディア】")
  ShowMessage("想像力は無限大……")
  ShowMessageFace("",0,0,2,57)
  ShowMessage("メディアは地面に落書きをしている……")
  EndEventProcessing()
  0()
 EndIf()
 If(1,11,0,3,0)
  ShowMessageFace("beelzebub_fc3",2,0,2,58)
  ShowMessage("【メディア】")
  ShowMessage("おやすみ……")
  313(0,277,0,11)
  ShowMessageFace("",0,0,2,59)
  ShowMessage("メディアは居眠りしている……")
  EndEventProcessing()
  0()
 EndIf()
 If(1,11,0,4,0)
  ShowMessageFace("beelzebub_fc3",1,0,2,60)
  ShowMessage("【メディア】")
  ShowMessage("あげるわ……")
  ShowMessageFace("",0,0,2,61)
  ShowMessage("メディアからの差し入れだ！")
  250(bytes(0x04,0x08,0x6f,0x3a,0x0c,0x52,0x50,0x47,0x3a,0x3a,0x53,0x45,0x08,0x3a,0x0a,0x40,0x6e,0x61,0x6d,0x65,0x49,0x22,0x0a,0x49,0x74,0x65,0x6d,0x31,0x06,0x3a,0x06,0x45,0x54,0x3a,0x0b,0x40,0x70,0x69,0x74,0x63,0x68,0x69,0x69,0x3a,0x0c,0x40,0x76,0x6f,0x6c,0x75,0x6d,0x65,0x69,0x55))
  ChangeInventory_Item(408,0,0,1)
  ShowMessageFace("",0,0,2,62)
  ShowMessage("「おだんご」を手に入れた！")
  EndEventProcessing()
  0()
 EndIf()
 If(1,11,0,5,0)
  ShowMessageFace("beelzebub_fc3",0,0,2,63)
  ShowMessage("【メディア】")
  ShowMessage("消えて……")
  355("interrupt_skill(2859)")
  EndEventProcessing()
  0()
 EndIf()
 0()
EndIf()
If(1,100,0,278,0)
 If(1,11,0,1,0)
  ShowMessageFace("arkjelly_fc1",0,0,2,64)
  ShowMessage("【サマンサ】")
  ShowMessage("ふよふよ……")
  ShowMessageFace("",0,0,2,65)
  ShowMessage("サマンサはふよふよしている……")
  EndEventProcessing()
  0()
 EndIf()
 If(1,11,0,2,0)
  ShowMessageFace("arkjelly_fc1",0,0,2,66)
  ShowMessage("【サマンサ】")
  ShowMessage("ぼんやり……")
  ShowMessageFace("",0,0,2,67)
  ShowMessage("サマンサはぼんやりしている……")
  EndEventProcessing()
  0()
 EndIf()
 If(1,11,0,3,0)
  ShowMessageFace("arkjelly_fc1",0,0,2,68)
  ShowMessage("【サマンサ】")
  ShowMessage("びびび……")
  355("interrupt_skill(3308)")
  0()
 EndIf()
 If(1,11,0,4,0)
  ShowMessageFace("arkjelly_fc1",0,0,2,69)
  ShowMessage("【サマンサ】")
  ShowMessage("あげる……")
  ShowMessageFace("",0,0,2,70)
  ShowMessage("サマンサからの差し入れだ！")
  250(bytes(0x04,0x08,0x6f,0x3a,0x0c,0x52,0x50,0x47,0x3a,0x3a,0x53,0x45,0x08,0x3a,0x0a,0x40,0x6e,0x61,0x6d,0x65,0x49,0x22,0x0a,0x49,0x74,0x65,0x6d,0x31,0x06,0x3a,0x06,0x45,0x54,0x3a,0x0b,0x40,0x70,0x69,0x74,0x63,0x68,0x69,0x69,0x3a,0x0c,0x40,0x76,0x6f,0x6c,0x75,0x6d,0x65,0x69,0x55))
  ChangeInventory_Item(322,0,0,1)
  ShowMessageFace("",0,0,2,71)
  ShowMessage("「さかな」を手に入れた！")
  EndEventProcessing()
  0()
 EndIf()
 If(1,11,0,5,0)
  ShowMessageFace("arkjelly_fc1",0,0,2,72)
  ShowMessage("【サマンサ】")
  ShowMessage("しゅるしゅるしゅる……")
  355("interrupt_skill(2789)")
  EndEventProcessing()
  0()
 EndIf()
 0()
EndIf()
If(1,100,0,279,0)
 If(1,11,0,1,0)
  ShowMessageFace("e_scylla_fc1",0,0,2,73)
  ShowMessage("【オーマ】")
  ShowMessage("もわもわ……")
  355("interrupt_skill(2816)")
  EndEventProcessing()
  0()
 EndIf()
 If(1,11,0,2,0)
  ShowMessageFace("e_scylla_fc1",0,0,2,74)
  ShowMessage("【オーマ】")
  ShowMessage("ふふっ……")
  355("interrupt_skill(3296)")
  EndEventProcessing()
  0()
 EndIf()
 If(1,11,0,3,0)
  ShowMessageFace("e_scylla_fc1",0,0,2,75)
  ShowMessage("【オーマ】")
  ShowMessage("ふふっ……")
  ShowMessageFace("",0,0,2,76)
  ShowMessage("オーマはにやにや笑っている……")
  EndEventProcessing()
  0()
 EndIf()
 If(1,11,0,4,0)
  ShowMessageFace("e_scylla_fc1",1,0,2,77)
  ShowMessage("【オーマ】")
  ShowMessage("盛り上がるわよ……！")
  ShowMessageFace("",0,0,2,78)
  ShowMessage("オーマは陽気に歌って踊っている……")
  EndEventProcessing()
  0()
 EndIf()
 If(1,11,0,5,0)
  ShowMessageFace("e_scylla_fc1",1,0,2,79)
  ShowMessage("【オーマ】")
  ShowMessage("邪魔よ……！")
  355("interrupt_skill(2776)")
  EndEventProcessing()
  0()
 EndIf()
 0()
EndIf()
If(1,100,0,280,0)
 If(1,11,0,1,0)
  ShowMessageFace("poseidones_fc1",0,0,2,80)
  ShowMessage("【ポセイドネス】")
  ShowMessage("まったく、海の連中は大雑把で困る……")
  ShowMessageFace("",0,0,2,81)
  ShowMessage("ポセイドネスは一人で愚痴を言っている……")
  EndEventProcessing()
  0()
 EndIf()
 If(1,11,0,2,0)
  ShowMessageFace("poseidones_fc1",0,0,2,82)
  ShowMessage("【ポセイドネス】")
  ShowMessage("北海の女王が命じる、このような戦いはやめよ！")
  ShowMessageFace("",0,0,2,83)
  ShowMessage("ポセイドネスは仲裁に入った！")
  ShowMessage("しかし誰も聞いていない……")
  EndEventProcessing()
  0()
 EndIf()
 If(1,11,0,3,0)
  ShowMessageFace("poseidones_fc1",0,0,2,84)
  ShowMessage("【ポセイドネス】")
  ShowMessage("ふんっ！！")
  355("interrupt_skill(3294)")
  EndEventProcessing()
  0()
 EndIf()
 If(1,11,0,4,0)
  ShowMessageFace("poseidones_fc1",0,0,2,85)
  ShowMessage("【ポセイドネス】")
  ShowMessage("海の幸をふんだんに含んでいるぞ。")
  ShowMessage("半分以上は、私の体から採ったものだが……")
  ShowMessageFace("",0,0,2,86)
  ShowMessage("ポセイドネスからの差し入れだ！")
  250(bytes(0x04,0x08,0x6f,0x3a,0x0c,0x52,0x50,0x47,0x3a,0x3a,0x53,0x45,0x08,0x3a,0x0a,0x40,0x6e,0x61,0x6d,0x65,0x49,0x22,0x0a,0x49,0x74,0x65,0x6d,0x31,0x06,0x3a,0x06,0x45,0x54,0x3a,0x0b,0x40,0x70,0x69,0x74,0x63,0x68,0x69,0x69,0x3a,0x0c,0x40,0x76,0x6f,0x6c,0x75,0x6d,0x65,0x69,0x55))
  ChangeInventory_Item(367,0,0,1)
  ShowMessageFace("",0,0,2,87)
  ShowMessage("「パエリア」を手に入れた！")
  EndEventProcessing()
  0()
 EndIf()
 If(1,11,0,5,0)
  ShowMessageFace("poseidones_fc1",0,0,2,88)
  ShowMessage("【ポセイドネス】")
  ShowMessage("はぁぁぁっ！！")
  355("interrupt_skill(2776)")
  EndEventProcessing()
  0()
 EndIf()
 0()
EndIf()
0()
